4096MergeMatch,iOS,4152731618
4096MergeMatch,Android,
Bitersio,iOS,4276413197
Bitersio,Android,2701649383
Blobieio,iOS,2848595985
Blobieio,Android,3103926287
Dotzio,iOS,2882068564
Dotzio,Android,990487557
Facepunchio,iOS,1851026748
Facepunchio,Android,2917768025
Fispio,iOS,3556951178
Fispio,Android,2384341688
Goonsio,iOS,1572225941
Goonsio,Android,254946422
Hillyio,iOS,2952891374
Hillyio,Android,3017525808
Landixio,iOS,791368429
Landixio,Android,1461012090
Mobgio,iOS,4074047748
Mobgio,Android,4107585821
Pikesio,iOS,544087209
Pikesio,Android,841440066
Shootersio,iOS,2997750613
Shootersio,Android,610432291
Skyroyaleio,iOS,771076425
Skyroyaleio,Android,3495883249
Slimesio,iOS,4045622300
Slimesio,Android,553316843
Smashersio,iOS,1836455611
Smashersio,Android,844847818
Snixio,iOS,2213556373
Snixio,Android,2348949070
Twixio,iOS,1758463344
Twixio,Android,4019136406
Zlaxio,iOS,1382379037
Zlaxio,Android,3219778625
Boasio,iOS,4014158819
Boasio,Android,3367276961
CollectCubes,iOS,712908461
CollectCubes,Android,4163304147
Speario3D,iOS,265566280
Speario3D,Android,239582046
ArtBall3D,iOS,3927460130
ArtBall3D,Android,1241599975
