Speario3D,iOS,3877690165
4096MergeMatch,iOS,1397345982
Slimesio,iOS,405135279
Bitersio,iOS,462029662
Shootersio,Android,1218819686
Dotzio,Android,4011275571
Landixio,Android,72397677
Mobgio,Android,492824898
Twixio,iOS,4001175209
Smashersio,iOS,2947455127
Fispio,Android,2747247571
Dotzio,iOS,318800530
Hillyio,iOS,3715167310
Landixio,iOS,3613417406
Pikesio,Android,2083591761
Smashersio,Android,1069629651
Fispio,iOS,3956028848
Speario3D,Android,3053122888
Pikesio,iOS,2798642376
Bitersio,Android,1759434416
MergePop,iOS,3460071231
Blobieio,iOS,423884177
Shootersio,iOS,1315643236
Slimesio,Android,2433789174
Skyroyaleio,iOS,558654991
Mobgio,iOS,3745590404
Blobieio,Android,2222071428
Boasio,iOS,2398914600
Goonsio,Android,4070220904
IdleAquaTycoon,iOS,3068086037
Zlaxio,iOS,2582349846
SillyMazeColor,iOS,114726701
Skyroyaleio,Android,1525546238
Boasio,Android,3772792603
Twixio,Android,204195749
Hillyio,Android,2380517991
Zlaxio,Android,3431187921
Snixio,iOS,1818850602
ArtBall3D,Android,1822800487
ArtBall3D,iOS,1975746961
CollectCubes,iOS,585121625
CollectCubes,Android,119294141
Facepunchio,Android,589590437
Goonsio,iOS,2478332193
Snixio,Android,1055702280
