"Date","App","Platform","Country","Item_Unit_ID","Item_Unit_name","Item_Unit_format","Item_Unit_Supplier","Item_Unit_Count","Item_Unit_Revenue","Item_Unit_SupE_count"
"2019-12-18",CollectCubes,iOS,AD,"0d048288e3b096888c3522088b5ad3e27fc0b40671c37544c3f0c25be6e6d04a",lineitem_collectcubes-Type_C-ios-global-0250-supplierA,type_C,supplier_A,3656.0,"65.782571",23857
"2019-12-18",CollectCubes,iOS,AE,"0d048288e3b096888c3522088b5ad3e27fc0b40671c37544c3f0c25be6e6d04a",lineitem_collectcubes-Type_C-ios-global-0250-supplierA,type_C,supplier_A,3656.0,"65.782571",8788
"2019-12-18",CollectCubes,iOS,AE,"0d048288e3b096888c3522088b5ad3e27fc0b40671c37544c3f0c25be6e6d04a",lineitem_collectcubes-Type_C-ios-global-0250-supplierA,type_C,supplier_A,3656.0,"65.782571",13599
"2019-12-18",CollectCubes,iOS,AE,"0d048288e3b096888c3522088b5ad3e27fc0b40671c37544c3f0c25be6e6d04a",lineitem_collectcubes-Type_C-ios-global-0250-supplierA,type_C,supplier_A,3656.0,"65.782571",13713
"2019-12-18",CollectCubes,iOS,AF,"0d048288e3b096888c3522088b5ad3e27fc0b40671c37544c3f0c25be6e6d04a",lineitem_collectcubes-Type_C-ios-global-0250-supplierA,type_C,supplier_A,3656.0,"65.782571",10062
"2019-12-18",CollectCubes,iOS,AF,"0d048288e3b096888c3522088b5ad3e27fc0b40671c37544c3f0c25be6e6d04a",lineitem_collectcubes-Type_C-ios-global-0250-supplierA,type_C,supplier_A,3656.0,"65.782571",14265
"2019-12-18",CollectCubes,iOS,AG,"0d048288e3b096888c3522088b5ad3e27fc0b40671c37544c3f0c25be6e6d04a",lineitem_collectcubes-Type_C-ios-global-0250-supplierA,type_C,supplier_A,3656.0,"65.782571",5092
"2019-12-18",CollectCubes,iOS,AI,"0d048288e3b096888c3522088b5ad3e27fc0b40671c37544c3f0c25be6e6d04a",lineitem_collectcubes-Type_C-ios-global-0250-supplierA,type_C,supplier_A,3656.0,"65.782571",16061
"2019-12-18",CollectCubes,iOS,AL,"0d048288e3b096888c3522088b5ad3e27fc0b40671c37544c3f0c25be6e6d04a",lineitem_collectcubes-Type_C-ios-global-0250-supplierA,type_C,supplier_A,3656.0,"65.782571",14969
"2019-12-18",CollectCubes,iOS,AL,"0d048288e3b096888c3522088b5ad3e27fc0b40671c37544c3f0c25be6e6d04a",lineitem_collectcubes-Type_C-ios-global-0250-supplierA,type_C,supplier_A,3656.0,"65.782571",20468
"2019-12-18",CollectCubes,iOS,AM,"0d048288e3b096888c3522088b5ad3e27fc0b40671c37544c3f0c25be6e6d04a",lineitem_collectcubes-Type_C-ios-global-0250-supplierA,type_C,supplier_A,3656.0,"65.782571",6920
"2019-12-18",CollectCubes,iOS,AM,"0d048288e3b096888c3522088b5ad3e27fc0b40671c37544c3f0c25be6e6d04a",lineitem_collectcubes-Type_C-ios-global-0250-supplierA,type_C,supplier_A,3656.0,"65.782571",14066
"2019-12-18",CollectCubes,iOS,AO,"0d048288e3b096888c3522088b5ad3e27fc0b40671c37544c3f0c25be6e6d04a",lineitem_collectcubes-Type_C-ios-global-0250-supplierA,type_C,supplier_A,3656.0,"65.782571",772
"2019-12-18",CollectCubes,iOS,AO,"0d048288e3b096888c3522088b5ad3e27fc0b40671c37544c3f0c25be6e6d04a",lineitem_collectcubes-Type_C-ios-global-0250-supplierA,type_C,supplier_A,3656.0,"65.782571",13300
"2019-12-18",CollectCubes,iOS,AR,"0d048288e3b096888c3522088b5ad3e27fc0b40671c37544c3f0c25be6e6d04a",lineitem_collectcubes-Type_C-ios-global-0250-supplierA,type_C,supplier_A,3656.0,"65.782571",9334
"2019-12-18",CollectCubes,iOS,AR,"0d048288e3b096888c3522088b5ad3e27fc0b40671c37544c3f0c25be6e6d04a",lineitem_collectcubes-Type_C-ios-global-0250-supplierA,type_C,supplier_A,3656.0,"65.782571",13340
"2019-12-18",CollectCubes,iOS,AR,"0d048288e3b096888c3522088b5ad3e27fc0b40671c37544c3f0c25be6e6d04a",lineitem_collectcubes-Type_C-ios-global-0250-supplierA,type_C,supplier_A,3656.0,"65.782571",18699
"2019-12-18",CollectCubes,iOS,AT,"0d048288e3b096888c3522088b5ad3e27fc0b40671c37544c3f0c25be6e6d04a",lineitem_collectcubes-Type_C-ios-global-0250-supplierA,type_C,supplier_A,3656.0,"65.782571",1074
"2019-12-18",CollectCubes,iOS,AT,"0d048288e3b096888c3522088b5ad3e27fc0b40671c37544c3f0c25be6e6d04a",lineitem_collectcubes-Type_C-ios-global-0250-supplierA,type_C,supplier_A,3656.0,"65.782571",19883
"2019-12-18",CollectCubes,iOS,AU,"0d048288e3b096888c3522088b5ad3e27fc0b40671c37544c3f0c25be6e6d04a",lineitem_collectcubes-Type_C-ios-global-0250-supplierA,type_C,supplier_A,3656.0,"65.782571",629
"2019-12-18",CollectCubes,iOS,AU,"0d048288e3b096888c3522088b5ad3e27fc0b40671c37544c3f0c25be6e6d04a",lineitem_collectcubes-Type_C-ios-global-0250-supplierA,type_C,supplier_A,3656.0,"65.782571",13680
"2019-12-18",CollectCubes,iOS,AU,"0d048288e3b096888c3522088b5ad3e27fc0b40671c37544c3f0c25be6e6d04a",lineitem_collectcubes-Type_C-ios-global-0250-supplierA,type_C,supplier_A,3656.0,"65.782571",20395
"2019-12-18",CollectCubes,iOS,AW,"0d048288e3b096888c3522088b5ad3e27fc0b40671c37544c3f0c25be6e6d04a",lineitem_collectcubes-Type_C-ios-global-0250-supplierA,type_C,supplier_A,3656.0,"65.782571",1995
"2019-12-18",CollectCubes,iOS,AW,"0d048288e3b096888c3522088b5ad3e27fc0b40671c37544c3f0c25be6e6d04a",lineitem_collectcubes-Type_C-ios-global-0250-supplierA,type_C,supplier_A,3656.0,"65.782571",9207
"2019-12-18",CollectCubes,iOS,AZ,"0d048288e3b096888c3522088b5ad3e27fc0b40671c37544c3f0c25be6e6d04a",lineitem_collectcubes-Type_C-ios-global-0250-supplierA,type_C,supplier_A,3656.0,"65.782571",5545
"2019-12-18",CollectCubes,iOS,AZ,"0d048288e3b096888c3522088b5ad3e27fc0b40671c37544c3f0c25be6e6d04a",lineitem_collectcubes-Type_C-ios-global-0250-supplierA,type_C,supplier_A,3656.0,"65.782571",5785
"2019-12-18",CollectCubes,iOS,BA,"0d048288e3b096888c3522088b5ad3e27fc0b40671c37544c3f0c25be6e6d04a",lineitem_collectcubes-Type_C-ios-global-0250-supplierA,type_C,supplier_A,3656.0,"65.782571",17278
"2019-12-18",CollectCubes,iOS,BB,"0d048288e3b096888c3522088b5ad3e27fc0b40671c37544c3f0c25be6e6d04a",lineitem_collectcubes-Type_C-ios-global-0250-supplierA,type_C,supplier_A,3656.0,"65.782571",16281
"2019-12-18",CollectCubes,iOS,BB,"0d048288e3b096888c3522088b5ad3e27fc0b40671c37544c3f0c25be6e6d04a",lineitem_collectcubes-Type_C-ios-global-0250-supplierA,type_C,supplier_A,3656.0,"65.782571",16975
"2019-12-18",CollectCubes,iOS,BD,"0d048288e3b096888c3522088b5ad3e27fc0b40671c37544c3f0c25be6e6d04a",lineitem_collectcubes-Type_C-ios-global-0250-supplierA,type_C,supplier_A,3656.0,"65.782571",1713
"2019-12-18",CollectCubes,iOS,BD,"0d048288e3b096888c3522088b5ad3e27fc0b40671c37544c3f0c25be6e6d04a",lineitem_collectcubes-Type_C-ios-global-0250-supplierA,type_C,supplier_A,3656.0,"65.782571",5213
"2019-12-18",CollectCubes,iOS,BE,"0d048288e3b096888c3522088b5ad3e27fc0b40671c37544c3f0c25be6e6d04a",lineitem_collectcubes-Type_C-ios-global-0250-supplierA,type_C,supplier_A,3656.0,"65.782571",5694
"2019-12-18",CollectCubes,iOS,BE,"0d048288e3b096888c3522088b5ad3e27fc0b40671c37544c3f0c25be6e6d04a",lineitem_collectcubes-Type_C-ios-global-0250-supplierA,type_C,supplier_A,3656.0,"65.782571",12571
"2019-12-18",CollectCubes,iOS,BG,"0d048288e3b096888c3522088b5ad3e27fc0b40671c37544c3f0c25be6e6d04a",lineitem_collectcubes-Type_C-ios-global-0250-supplierA,type_C,supplier_A,3656.0,"65.782571",11877
"2019-12-18",CollectCubes,iOS,BG,"0d048288e3b096888c3522088b5ad3e27fc0b40671c37544c3f0c25be6e6d04a",lineitem_collectcubes-Type_C-ios-global-0250-supplierA,type_C,supplier_A,3656.0,"65.782571",18087
"2019-12-18",CollectCubes,iOS,BH,"0d048288e3b096888c3522088b5ad3e27fc0b40671c37544c3f0c25be6e6d04a",lineitem_collectcubes-Type_C-ios-global-0250-supplierA,type_C,supplier_A,3656.0,"65.782571",9342
"2019-12-18",CollectCubes,iOS,BH,"0d048288e3b096888c3522088b5ad3e27fc0b40671c37544c3f0c25be6e6d04a",lineitem_collectcubes-Type_C-ios-global-0250-supplierA,type_C,supplier_A,3656.0,"65.782571",16533
"2019-12-18",CollectCubes,iOS,BM,"0d048288e3b096888c3522088b5ad3e27fc0b40671c37544c3f0c25be6e6d04a",lineitem_collectcubes-Type_C-ios-global-0250-supplierA,type_C,supplier_A,3656.0,"65.782571",2209
"2019-12-18",CollectCubes,iOS,BM,"0d048288e3b096888c3522088b5ad3e27fc0b40671c37544c3f0c25be6e6d04a",lineitem_collectcubes-Type_C-ios-global-0250-supplierA,type_C,supplier_A,3656.0,"65.782571",5447
"2019-12-18",CollectCubes,iOS,BN,"0d048288e3b096888c3522088b5ad3e27fc0b40671c37544c3f0c25be6e6d04a",lineitem_collectcubes-Type_C-ios-global-0250-supplierA,type_C,supplier_A,3656.0,"65.782571",11765
"2019-12-18",CollectCubes,iOS,BO,"0d048288e3b096888c3522088b5ad3e27fc0b40671c37544c3f0c25be6e6d04a",lineitem_collectcubes-Type_C-ios-global-0250-supplierA,type_C,supplier_A,3656.0,"65.782571",15294
"2019-12-18",CollectCubes,iOS,BO,"0d048288e3b096888c3522088b5ad3e27fc0b40671c37544c3f0c25be6e6d04a",lineitem_collectcubes-Type_C-ios-global-0250-supplierA,type_C,supplier_A,3656.0,"65.782571",23953
"2019-12-18",CollectCubes,iOS,BR,"0d048288e3b096888c3522088b5ad3e27fc0b40671c37544c3f0c25be6e6d04a",lineitem_collectcubes-Type_C-ios-global-0250-supplierA,type_C,supplier_A,3656.0,"65.782571",2207
"2019-12-18",CollectCubes,iOS,BR,"0d048288e3b096888c3522088b5ad3e27fc0b40671c37544c3f0c25be6e6d04a",lineitem_collectcubes-Type_C-ios-global-0250-supplierA,type_C,supplier_A,3656.0,"65.782571",2955
"2019-12-18",CollectCubes,iOS,BS,"0d048288e3b096888c3522088b5ad3e27fc0b40671c37544c3f0c25be6e6d04a",lineitem_collectcubes-Type_C-ios-global-0250-supplierA,type_C,supplier_A,3656.0,"65.782571",9573
"2019-12-18",CollectCubes,iOS,BS,"0d048288e3b096888c3522088b5ad3e27fc0b40671c37544c3f0c25be6e6d04a",lineitem_collectcubes-Type_C-ios-global-0250-supplierA,type_C,supplier_A,3656.0,"65.782571",20212
"2019-12-18",CollectCubes,iOS,BW,"0d048288e3b096888c3522088b5ad3e27fc0b40671c37544c3f0c25be6e6d04a",lineitem_collectcubes-Type_C-ios-global-0250-supplierA,type_C,supplier_A,3656.0,"65.782571",21906
"2019-12-18",CollectCubes,iOS,BY,"0d048288e3b096888c3522088b5ad3e27fc0b40671c37544c3f0c25be6e6d04a",lineitem_collectcubes-Type_C-ios-global-0250-supplierA,type_C,supplier_A,3656.0,"65.782571",11313
"2019-12-18",CollectCubes,iOS,BY,"0d048288e3b096888c3522088b5ad3e27fc0b40671c37544c3f0c25be6e6d04a",lineitem_collectcubes-Type_C-ios-global-0250-supplierA,type_C,supplier_A,3656.0,"65.782571",17820
"2019-12-18",CollectCubes,iOS,BZ,"0d048288e3b096888c3522088b5ad3e27fc0b40671c37544c3f0c25be6e6d04a",lineitem_collectcubes-Type_C-ios-global-0250-supplierA,type_C,supplier_A,3656.0,"65.782571",8957
"2019-12-18",CollectCubes,iOS,BZ,"0d048288e3b096888c3522088b5ad3e27fc0b40671c37544c3f0c25be6e6d04a",lineitem_collectcubes-Type_C-ios-global-0250-supplierA,type_C,supplier_A,3656.0,"65.782571",12119
"2019-12-18",CollectCubes,iOS,CA,"0d048288e3b096888c3522088b5ad3e27fc0b40671c37544c3f0c25be6e6d04a",lineitem_collectcubes-Type_C-ios-global-0250-supplierA,type_C,supplier_A,3656.0,"65.782571",10790
"2019-12-18",CollectCubes,iOS,CA,"0d048288e3b096888c3522088b5ad3e27fc0b40671c37544c3f0c25be6e6d04a",lineitem_collectcubes-Type_C-ios-global-0250-supplierA,type_C,supplier_A,3656.0,"65.782571",19403
"2019-12-18",CollectCubes,iOS,CA,"0d048288e3b096888c3522088b5ad3e27fc0b40671c37544c3f0c25be6e6d04a",lineitem_collectcubes-Type_C-ios-global-0250-supplierA,type_C,supplier_A,3656.0,"65.782571",22920
"2019-12-18",CollectCubes,iOS,CH,"0d048288e3b096888c3522088b5ad3e27fc0b40671c37544c3f0c25be6e6d04a",lineitem_collectcubes-Type_C-ios-global-0250-supplierA,type_C,supplier_A,3656.0,"65.782571",6456
"2019-12-18",CollectCubes,iOS,CH,"0d048288e3b096888c3522088b5ad3e27fc0b40671c37544c3f0c25be6e6d04a",lineitem_collectcubes-Type_C-ios-global-0250-supplierA,type_C,supplier_A,3656.0,"65.782571",17695
"2019-12-18",CollectCubes,iOS,CH,"0d048288e3b096888c3522088b5ad3e27fc0b40671c37544c3f0c25be6e6d04a",lineitem_collectcubes-Type_C-ios-global-0250-supplierA,type_C,supplier_A,3656.0,"65.782571",18230
"2019-12-18",CollectCubes,iOS,CL,"0d048288e3b096888c3522088b5ad3e27fc0b40671c37544c3f0c25be6e6d04a",lineitem_collectcubes-Type_C-ios-global-0250-supplierA,type_C,supplier_A,3656.0,"65.782571",2289
"2019-12-18",CollectCubes,iOS,CL,"0d048288e3b096888c3522088b5ad3e27fc0b40671c37544c3f0c25be6e6d04a",lineitem_collectcubes-Type_C-ios-global-0250-supplierA,type_C,supplier_A,3656.0,"65.782571",6660
"2019-12-18",CollectCubes,iOS,CN,"0d048288e3b096888c3522088b5ad3e27fc0b40671c37544c3f0c25be6e6d04a",lineitem_collectcubes-Type_C-ios-global-0250-supplierA,type_C,supplier_A,3656.0,"65.782571",20
"2019-12-18",CollectCubes,iOS,CN,"0d048288e3b096888c3522088b5ad3e27fc0b40671c37544c3f0c25be6e6d04a",lineitem_collectcubes-Type_C-ios-global-0250-supplierA,type_C,supplier_A,3656.0,"65.782571",8565
"2019-12-18",CollectCubes,iOS,CN,"0d048288e3b096888c3522088b5ad3e27fc0b40671c37544c3f0c25be6e6d04a",lineitem_collectcubes-Type_C-ios-global-0250-supplierA,type_C,supplier_A,3656.0,"65.782571",8657
"2019-12-18",CollectCubes,iOS,CO,"0d048288e3b096888c3522088b5ad3e27fc0b40671c37544c3f0c25be6e6d04a",lineitem_collectcubes-Type_C-ios-global-0250-supplierA,type_C,supplier_A,3656.0,"65.782571",1798
"2019-12-18",CollectCubes,iOS,CO,"0d048288e3b096888c3522088b5ad3e27fc0b40671c37544c3f0c25be6e6d04a",lineitem_collectcubes-Type_C-ios-global-0250-supplierA,type_C,supplier_A,3656.0,"65.782571",3285
"2019-12-18",CollectCubes,iOS,CO,"0d048288e3b096888c3522088b5ad3e27fc0b40671c37544c3f0c25be6e6d04a",lineitem_collectcubes-Type_C-ios-global-0250-supplierA,type_C,supplier_A,3656.0,"65.782571",12664
"2019-12-18",CollectCubes,iOS,CR,"0d048288e3b096888c3522088b5ad3e27fc0b40671c37544c3f0c25be6e6d04a",lineitem_collectcubes-Type_C-ios-global-0250-supplierA,type_C,supplier_A,3656.0,"65.782571",3622
"2019-12-18",CollectCubes,iOS,CR,"0d048288e3b096888c3522088b5ad3e27fc0b40671c37544c3f0c25be6e6d04a",lineitem_collectcubes-Type_C-ios-global-0250-supplierA,type_C,supplier_A,3656.0,"65.782571",14741
"2019-12-18",CollectCubes,iOS,CV,"0d048288e3b096888c3522088b5ad3e27fc0b40671c37544c3f0c25be6e6d04a",lineitem_collectcubes-Type_C-ios-global-0250-supplierA,type_C,supplier_A,3656.0,"65.782571",5448
"2019-12-18",CollectCubes,iOS,CV,"0d048288e3b096888c3522088b5ad3e27fc0b40671c37544c3f0c25be6e6d04a",lineitem_collectcubes-Type_C-ios-global-0250-supplierA,type_C,supplier_A,3656.0,"65.782571",22878
"2019-12-18",CollectCubes,iOS,CW,"0d048288e3b096888c3522088b5ad3e27fc0b40671c37544c3f0c25be6e6d04a",lineitem_collectcubes-Type_C-ios-global-0250-supplierA,type_C,supplier_A,3656.0,"65.782571",10028
"2019-12-18",CollectCubes,iOS,CY,"0d048288e3b096888c3522088b5ad3e27fc0b40671c37544c3f0c25be6e6d04a",lineitem_collectcubes-Type_C-ios-global-0250-supplierA,type_C,supplier_A,3656.0,"65.782571",10429
"2019-12-18",CollectCubes,iOS,CY,"0d048288e3b096888c3522088b5ad3e27fc0b40671c37544c3f0c25be6e6d04a",lineitem_collectcubes-Type_C-ios-global-0250-supplierA,type_C,supplier_A,3656.0,"65.782571",12288
"2019-12-18",CollectCubes,iOS,CZ,"0d048288e3b096888c3522088b5ad3e27fc0b40671c37544c3f0c25be6e6d04a",lineitem_collectcubes-Type_C-ios-global-0250-supplierA,type_C,supplier_A,3656.0,"65.782571",3833
"2019-12-18",CollectCubes,iOS,CZ,"0d048288e3b096888c3522088b5ad3e27fc0b40671c37544c3f0c25be6e6d04a",lineitem_collectcubes-Type_C-ios-global-0250-supplierA,type_C,supplier_A,3656.0,"65.782571",8919
"2019-12-18",CollectCubes,iOS,DE,"0d048288e3b096888c3522088b5ad3e27fc0b40671c37544c3f0c25be6e6d04a",lineitem_collectcubes-Type_C-ios-global-0250-supplierA,type_C,supplier_A,3656.0,"65.782571",11562
"2019-12-18",CollectCubes,iOS,DE,"0d048288e3b096888c3522088b5ad3e27fc0b40671c37544c3f0c25be6e6d04a",lineitem_collectcubes-Type_C-ios-global-0250-supplierA,type_C,supplier_A,3656.0,"65.782571",19819
"2019-12-18",CollectCubes,iOS,DE,"0d048288e3b096888c3522088b5ad3e27fc0b40671c37544c3f0c25be6e6d04a",lineitem_collectcubes-Type_C-ios-global-0250-supplierA,type_C,supplier_A,3656.0,"65.782571",22409
"2019-12-18",CollectCubes,iOS,DJ,"0d048288e3b096888c3522088b5ad3e27fc0b40671c37544c3f0c25be6e6d04a",lineitem_collectcubes-Type_C-ios-global-0250-supplierA,type_C,supplier_A,3656.0,"65.782571",10837
"2019-12-18",CollectCubes,iOS,DK,"0d048288e3b096888c3522088b5ad3e27fc0b40671c37544c3f0c25be6e6d04a",lineitem_collectcubes-Type_C-ios-global-0250-supplierA,type_C,supplier_A,3656.0,"65.782571",9170
"2019-12-18",CollectCubes,iOS,DK,"0d048288e3b096888c3522088b5ad3e27fc0b40671c37544c3f0c25be6e6d04a",lineitem_collectcubes-Type_C-ios-global-0250-supplierA,type_C,supplier_A,3656.0,"65.782571",17597
"2019-12-18",CollectCubes,iOS,DO,"0d048288e3b096888c3522088b5ad3e27fc0b40671c37544c3f0c25be6e6d04a",lineitem_collectcubes-Type_C-ios-global-0250-supplierA,type_C,supplier_A,3656.0,"65.782571",3137
"2019-12-18",CollectCubes,iOS,DO,"0d048288e3b096888c3522088b5ad3e27fc0b40671c37544c3f0c25be6e6d04a",lineitem_collectcubes-Type_C-ios-global-0250-supplierA,type_C,supplier_A,3656.0,"65.782571",9580
"2019-12-18",CollectCubes,iOS,DO,"0d048288e3b096888c3522088b5ad3e27fc0b40671c37544c3f0c25be6e6d04a",lineitem_collectcubes-Type_C-ios-global-0250-supplierA,type_C,supplier_A,3656.0,"65.782571",15525
"2019-12-18",CollectCubes,iOS,DZ,"0d048288e3b096888c3522088b5ad3e27fc0b40671c37544c3f0c25be6e6d04a",lineitem_collectcubes-Type_C-ios-global-0250-supplierA,type_C,supplier_A,3656.0,"65.782571",3802
"2019-12-18",CollectCubes,iOS,DZ,"0d048288e3b096888c3522088b5ad3e27fc0b40671c37544c3f0c25be6e6d04a",lineitem_collectcubes-Type_C-ios-global-0250-supplierA,type_C,supplier_A,3656.0,"65.782571",5418
"2019-12-18",CollectCubes,iOS,EC,"0d048288e3b096888c3522088b5ad3e27fc0b40671c37544c3f0c25be6e6d04a",lineitem_collectcubes-Type_C-ios-global-0250-supplierA,type_C,supplier_A,3656.0,"65.782571",9060
"2019-12-18",CollectCubes,iOS,EC,"0d048288e3b096888c3522088b5ad3e27fc0b40671c37544c3f0c25be6e6d04a",lineitem_collectcubes-Type_C-ios-global-0250-supplierA,type_C,supplier_A,3656.0,"65.782571",9209
"2019-12-18",CollectCubes,iOS,EE,"0d048288e3b096888c3522088b5ad3e27fc0b40671c37544c3f0c25be6e6d04a",lineitem_collectcubes-Type_C-ios-global-0250-supplierA,type_C,supplier_A,3656.0,"65.782571",5825
"2019-12-18",CollectCubes,iOS,EG,"0d048288e3b096888c3522088b5ad3e27fc0b40671c37544c3f0c25be6e6d04a",lineitem_collectcubes-Type_C-ios-global-0250-supplierA,type_C,supplier_A,3656.0,"65.782571",21959
"2019-12-18",CollectCubes,iOS,EG,"0d048288e3b096888c3522088b5ad3e27fc0b40671c37544c3f0c25be6e6d04a",lineitem_collectcubes-Type_C-ios-global-0250-supplierA,type_C,supplier_A,3656.0,"65.782571",23614
"2019-12-18",CollectCubes,iOS,ES,"0d048288e3b096888c3522088b5ad3e27fc0b40671c37544c3f0c25be6e6d04a",lineitem_collectcubes-Type_C-ios-global-0250-supplierA,type_C,supplier_A,3656.0,"65.782571",5068
"2019-12-18",CollectCubes,iOS,ES,"0d048288e3b096888c3522088b5ad3e27fc0b40671c37544c3f0c25be6e6d04a",lineitem_collectcubes-Type_C-ios-global-0250-supplierA,type_C,supplier_A,3656.0,"65.782571",7257
"2019-12-18",CollectCubes,iOS,ES,"0d048288e3b096888c3522088b5ad3e27fc0b40671c37544c3f0c25be6e6d04a",lineitem_collectcubes-Type_C-ios-global-0250-supplierA,type_C,supplier_A,3656.0,"65.782571",7363
"2019-12-18",CollectCubes,iOS,ET,"0d048288e3b096888c3522088b5ad3e27fc0b40671c37544c3f0c25be6e6d04a",lineitem_collectcubes-Type_C-ios-global-0250-supplierA,type_C,supplier_A,3656.0,"65.782571",11057
"2019-12-18",CollectCubes,iOS,FI,"0d048288e3b096888c3522088b5ad3e27fc0b40671c37544c3f0c25be6e6d04a",lineitem_collectcubes-Type_C-ios-global-0250-supplierA,type_C,supplier_A,3656.0,"65.782571",8696
"2019-12-18",CollectCubes,iOS,FI,"0d048288e3b096888c3522088b5ad3e27fc0b40671c37544c3f0c25be6e6d04a",lineitem_collectcubes-Type_C-ios-global-0250-supplierA,type_C,supplier_A,3656.0,"65.782571",9396
"2019-12-18",CollectCubes,iOS,FJ,"0d048288e3b096888c3522088b5ad3e27fc0b40671c37544c3f0c25be6e6d04a",lineitem_collectcubes-Type_C-ios-global-0250-supplierA,type_C,supplier_A,3656.0,"65.782571",3238
"2019-12-18",CollectCubes,iOS,FJ,"0d048288e3b096888c3522088b5ad3e27fc0b40671c37544c3f0c25be6e6d04a",lineitem_collectcubes-Type_C-ios-global-0250-supplierA,type_C,supplier_A,3656.0,"65.782571",5836
"2019-12-18",CollectCubes,iOS,FO,"0d048288e3b096888c3522088b5ad3e27fc0b40671c37544c3f0c25be6e6d04a",lineitem_collectcubes-Type_C-ios-global-0250-supplierA,type_C,supplier_A,3656.0,"65.782571",8875
"2019-12-18",CollectCubes,iOS,FR,"0d048288e3b096888c3522088b5ad3e27fc0b40671c37544c3f0c25be6e6d04a",lineitem_collectcubes-Type_C-ios-global-0250-supplierA,type_C,supplier_A,3656.0,"65.782571",4578
"2019-12-18",Fispio,Android,AE,c3a607544be1baee7b795809b74535ce1c9276f418db6e50a1be54f81758103f,lineitem_bitersio-Type_A-android-global-010-supplierDovin,type_A,supplier_B,35.953648,"6,089",19509
"2019-12-18",Fispio,Android,AE,df35dc3de32c4d6c4d2976ac77a674c8af532b47ef8c4c0fab59991bf1814546,lineitem_artball3d-Type_A-android-global-010-supplierDovin,type_A,supplier_B,35.953648,"6,089",15712
"2019-12-18",Fispio,Android,AL,df35dc3de32c4d6c4d2976ac77a674c8af532b47ef8c4c0fab59991bf1814546,lineitem_artball3d-Type_A-android-global-010-supplierDovin,type_A,supplier_B,35.953648,"6,089",10133
"2019-12-18",Fispio,Android,AM,c3a607544be1baee7b795809b74535ce1c9276f418db6e50a1be54f81758103f,lineitem_bitersio-Type_A-android-global-010-supplierDovin,type_A,supplier_B,35.953648,"6,089",4536
"2019-12-18",Fispio,Android,AR,c3a607544be1baee7b795809b74535ce1c9276f418db6e50a1be54f81758103f,lineitem_bitersio-Type_A-android-global-010-supplierDovin,type_A,supplier_B,35.953648,"6,089",17461
"2019-12-18",Fispio,Android,AR,df35dc3de32c4d6c4d2976ac77a674c8af532b47ef8c4c0fab59991bf1814546,lineitem_artball3d-Type_A-android-global-010-supplierDovin,type_A,supplier_B,35.953648,"6,089",6796
"2019-12-18",Fispio,Android,AT,c3a607544be1baee7b795809b74535ce1c9276f418db6e50a1be54f81758103f,lineitem_bitersio-Type_A-android-global-010-supplierDovin,type_A,supplier_B,35.953648,"6,089",18202
"2019-12-18",Fispio,Android,AT,df35dc3de32c4d6c4d2976ac77a674c8af532b47ef8c4c0fab59991bf1814546,lineitem_artball3d-Type_A-android-global-010-supplierDovin,type_A,supplier_B,35.953648,"6,089",6802
"2019-12-18",Fispio,Android,AU,c3a607544be1baee7b795809b74535ce1c9276f418db6e50a1be54f81758103f,lineitem_bitersio-Type_A-android-global-010-supplierDovin,type_A,supplier_B,35.953648,"6,089",1329
"2019-12-18",Fispio,Android,AU,df35dc3de32c4d6c4d2976ac77a674c8af532b47ef8c4c0fab59991bf1814546,lineitem_artball3d-Type_A-android-global-010-supplierDovin,type_A,supplier_B,35.953648,"6,089",7437
"2019-12-18",Fispio,Android,AZ,c3a607544be1baee7b795809b74535ce1c9276f418db6e50a1be54f81758103f,lineitem_bitersio-Type_A-android-global-010-supplierDovin,type_A,supplier_B,35.953648,"6,089",5326
"2019-12-18",Fispio,Android,BA,df35dc3de32c4d6c4d2976ac77a674c8af532b47ef8c4c0fab59991bf1814546,lineitem_artball3d-Type_A-android-global-010-supplierDovin,type_A,supplier_B,35.953648,"6,089",1929
"2019-12-18",Fispio,Android,BD,c3a607544be1baee7b795809b74535ce1c9276f418db6e50a1be54f81758103f,lineitem_bitersio-Type_A-android-global-010-supplierDovin,type_A,supplier_B,35.953648,"6,089",12338
"2019-12-18",Fispio,Android,BD,df35dc3de32c4d6c4d2976ac77a674c8af532b47ef8c4c0fab59991bf1814546,lineitem_artball3d-Type_A-android-global-010-supplierDovin,type_A,supplier_B,35.953648,"6,089",11345
"2019-12-18",Fispio,Android,BE,c3a607544be1baee7b795809b74535ce1c9276f418db6e50a1be54f81758103f,lineitem_bitersio-Type_A-android-global-010-supplierDovin,type_A,supplier_B,35.953648,"6,089",12681
"2019-12-18",Fispio,Android,BE,df35dc3de32c4d6c4d2976ac77a674c8af532b47ef8c4c0fab59991bf1814546,lineitem_artball3d-Type_A-android-global-010-supplierDovin,type_A,supplier_B,35.953648,"6,089",4963
"2019-12-18",Fispio,Android,BG,df35dc3de32c4d6c4d2976ac77a674c8af532b47ef8c4c0fab59991bf1814546,lineitem_artball3d-Type_A-android-global-010-supplierDovin,type_A,supplier_B,35.953648,"6,089",4702
"2019-12-18",Fispio,Android,BH,df35dc3de32c4d6c4d2976ac77a674c8af532b47ef8c4c0fab59991bf1814546,lineitem_artball3d-Type_A-android-global-010-supplierDovin,type_A,supplier_B,35.953648,"6,089",9009
"2019-12-18",Fispio,Android,BO,c3a607544be1baee7b795809b74535ce1c9276f418db6e50a1be54f81758103f,lineitem_bitersio-Type_A-android-global-010-supplierDovin,type_A,supplier_B,35.953648,"6,089",12687
"2019-12-18",Fispio,Android,BR,c3a607544be1baee7b795809b74535ce1c9276f418db6e50a1be54f81758103f,lineitem_bitersio-Type_A-android-global-010-supplierDovin,type_A,supplier_B,35.953648,"6,089",17554
"2019-12-18",Fispio,Android,BR,df35dc3de32c4d6c4d2976ac77a674c8af532b47ef8c4c0fab59991bf1814546,lineitem_artball3d-Type_A-android-global-010-supplierDovin,type_A,supplier_B,35.953648,"6,089",23838
"2019-12-18",Fispio,Android,BY,df35dc3de32c4d6c4d2976ac77a674c8af532b47ef8c4c0fab59991bf1814546,lineitem_artball3d-Type_A-android-global-010-supplierDovin,type_A,supplier_B,35.953648,"6,089",145
"2019-12-18",Fispio,Android,CA,c3a607544be1baee7b795809b74535ce1c9276f418db6e50a1be54f81758103f,lineitem_bitersio-Type_A-android-global-010-supplierDovin,type_A,supplier_B,35.953648,"6,089",10378
"2019-12-18",Fispio,Android,CA,df35dc3de32c4d6c4d2976ac77a674c8af532b47ef8c4c0fab59991bf1814546,lineitem_artball3d-Type_A-android-global-010-supplierDovin,type_A,supplier_B,35.953648,"6,089",8532
"2019-12-18",Fispio,Android,CH,df35dc3de32c4d6c4d2976ac77a674c8af532b47ef8c4c0fab59991bf1814546,lineitem_artball3d-Type_A-android-global-010-supplierDovin,type_A,supplier_B,35.953648,"6,089",9987
"2019-12-18",Fispio,Android,CL,c3a607544be1baee7b795809b74535ce1c9276f418db6e50a1be54f81758103f,lineitem_bitersio-Type_A-android-global-010-supplierDovin,type_A,supplier_B,35.953648,"6,089",3893
"2019-12-18",Fispio,Android,CN,df35dc3de32c4d6c4d2976ac77a674c8af532b47ef8c4c0fab59991bf1814546,lineitem_artball3d-Type_A-android-global-010-supplierDovin,type_A,supplier_B,35.953648,"6,089",995
"2019-12-18",Fispio,Android,CO,df35dc3de32c4d6c4d2976ac77a674c8af532b47ef8c4c0fab59991bf1814546,lineitem_artball3d-Type_A-android-global-010-supplierDovin,type_A,supplier_B,35.953648,"6,089",8539
"2019-12-18",Fispio,Android,CR,df35dc3de32c4d6c4d2976ac77a674c8af532b47ef8c4c0fab59991bf1814546,lineitem_artball3d-Type_A-android-global-010-supplierDovin,type_A,supplier_B,35.953648,"6,089",14086
"2019-12-18",Fispio,Android,CZ,df35dc3de32c4d6c4d2976ac77a674c8af532b47ef8c4c0fab59991bf1814546,lineitem_artball3d-Type_A-android-global-010-supplierDovin,type_A,supplier_B,35.953648,"6,089",3725
"2019-12-18",Fispio,Android,DE,df35dc3de32c4d6c4d2976ac77a674c8af532b47ef8c4c0fab59991bf1814546,lineitem_artball3d-Type_A-android-global-010-supplierDovin,type_A,supplier_B,35.953648,"6,089",15058
"2019-12-18",Fispio,Android,DK,df35dc3de32c4d6c4d2976ac77a674c8af532b47ef8c4c0fab59991bf1814546,lineitem_artball3d-Type_A-android-global-010-supplierDovin,type_A,supplier_B,35.953648,"6,089",19839
"2019-12-18",Fispio,Android,DO,df35dc3de32c4d6c4d2976ac77a674c8af532b47ef8c4c0fab59991bf1814546,lineitem_artball3d-Type_A-android-global-010-supplierDovin,type_A,supplier_B,35.953648,"6,089",7092
"2019-12-18",Fispio,Android,EC,df35dc3de32c4d6c4d2976ac77a674c8af532b47ef8c4c0fab59991bf1814546,lineitem_artball3d-Type_A-android-global-010-supplierDovin,type_A,supplier_B,35.953648,"6,089",12541
"2019-12-18",Fispio,Android,EG,df35dc3de32c4d6c4d2976ac77a674c8af532b47ef8c4c0fab59991bf1814546,lineitem_artball3d-Type_A-android-global-010-supplierDovin,type_A,supplier_B,35.953648,"6,089",21835
"2019-12-18",Fispio,Android,ES,df35dc3de32c4d6c4d2976ac77a674c8af532b47ef8c4c0fab59991bf1814546,lineitem_artball3d-Type_A-android-global-010-supplierDovin,type_A,supplier_B,35.953648,"6,089",14584
"2019-12-18",Fispio,Android,FI,df35dc3de32c4d6c4d2976ac77a674c8af532b47ef8c4c0fab59991bf1814546,lineitem_artball3d-Type_A-android-global-010-supplierDovin,type_A,supplier_B,35.953648,"6,089",21107
"2019-12-18",Fispio,Android,FJ,df35dc3de32c4d6c4d2976ac77a674c8af532b47ef8c4c0fab59991bf1814546,lineitem_artball3d-Type_A-android-global-010-supplierDovin,type_A,supplier_B,35.953648,"6,089",18150
"2019-12-18",Fispio,Android,FR,df35dc3de32c4d6c4d2976ac77a674c8af532b47ef8c4c0fab59991bf1814546,lineitem_artball3d-Type_A-android-global-010-supplierDovin,type_A,supplier_B,35.953648,"6,089",10464
"2019-12-18",Fispio,Android,GB,df35dc3de32c4d6c4d2976ac77a674c8af532b47ef8c4c0fab59991bf1814546,lineitem_artball3d-Type_A-android-global-010-supplierDovin,type_A,supplier_B,35.953648,"6,089",13007
"2019-12-18",Fispio,Android,GT,df35dc3de32c4d6c4d2976ac77a674c8af532b47ef8c4c0fab59991bf1814546,lineitem_artball3d-Type_A-android-global-010-supplierDovin,type_A,supplier_B,35.953648,"6,089",5184
"2019-12-18",Fispio,Android,HK,df35dc3de32c4d6c4d2976ac77a674c8af532b47ef8c4c0fab59991bf1814546,lineitem_artball3d-Type_A-android-global-010-supplierDovin,type_A,supplier_B,35.953648,"6,089",16621
"2019-12-18",Fispio,Android,HN,df35dc3de32c4d6c4d2976ac77a674c8af532b47ef8c4c0fab59991bf1814546,lineitem_artball3d-Type_A-android-global-010-supplierDovin,type_A,supplier_B,35.953648,"6,089",17168
"2019-12-18",Fispio,Android,HR,df35dc3de32c4d6c4d2976ac77a674c8af532b47ef8c4c0fab59991bf1814546,lineitem_artball3d-Type_A-android-global-010-supplierDovin,type_A,supplier_B,35.953648,"6,089",13570
"2019-12-18",Fispio,Android,HU,df35dc3de32c4d6c4d2976ac77a674c8af532b47ef8c4c0fab59991bf1814546,lineitem_artball3d-Type_A-android-global-010-supplierDovin,type_A,supplier_B,35.953648,"6,089",22437
"2019-12-18",Fispio,Android,ID,df35dc3de32c4d6c4d2976ac77a674c8af532b47ef8c4c0fab59991bf1814546,lineitem_artball3d-Type_A-android-global-010-supplierDovin,type_A,supplier_B,35.953648,"6,089",12813
"2019-12-18",Fispio,Android,IE,df35dc3de32c4d6c4d2976ac77a674c8af532b47ef8c4c0fab59991bf1814546,lineitem_artball3d-Type_A-android-global-010-supplierDovin,type_A,supplier_B,35.953648,"6,089",12357
"2019-12-18",Fispio,Android,IN,df35dc3de32c4d6c4d2976ac77a674c8af532b47ef8c4c0fab59991bf1814546,lineitem_artball3d-Type_A-android-global-010-supplierDovin,type_A,supplier_B,35.953648,"6,089",761
"2019-12-18",Fispio,Android,IQ,df35dc3de32c4d6c4d2976ac77a674c8af532b47ef8c4c0fab59991bf1814546,lineitem_artball3d-Type_A-android-global-010-supplierDovin,type_A,supplier_B,35.953648,"6,089",18254
"2019-12-18",Fispio,Android,IT,df35dc3de32c4d6c4d2976ac77a674c8af532b47ef8c4c0fab59991bf1814546,lineitem_artball3d-Type_A-android-global-010-supplierDovin,type_A,supplier_B,35.953648,"6,089",13912
"2019-12-18",Fispio,Android,JM,df35dc3de32c4d6c4d2976ac77a674c8af532b47ef8c4c0fab59991bf1814546,lineitem_artball3d-Type_A-android-global-010-supplierDovin,type_A,supplier_B,35.953648,"6,089",10259
"2019-12-18",Fispio,Android,JO,df35dc3de32c4d6c4d2976ac77a674c8af532b47ef8c4c0fab59991bf1814546,lineitem_artball3d-Type_A-android-global-010-supplierDovin,type_A,supplier_B,35.953648,"6,089",8409
"2019-12-18",Fispio,Android,JP,df35dc3de32c4d6c4d2976ac77a674c8af532b47ef8c4c0fab59991bf1814546,lineitem_artball3d-Type_A-android-global-010-supplierDovin,type_A,supplier_B,35.953648,"6,089",22440
"2019-12-18",Fispio,Android,KR,df35dc3de32c4d6c4d2976ac77a674c8af532b47ef8c4c0fab59991bf1814546,lineitem_artball3d-Type_A-android-global-010-supplierDovin,type_A,supplier_B,35.953648,"6,089",8843
"2019-12-18",Fispio,Android,KW,df35dc3de32c4d6c4d2976ac77a674c8af532b47ef8c4c0fab59991bf1814546,lineitem_artball3d-Type_A-android-global-010-supplierDovin,type_A,supplier_B,35.953648,"6,089",2530
"2019-12-18",Fispio,Android,KZ,df35dc3de32c4d6c4d2976ac77a674c8af532b47ef8c4c0fab59991bf1814546,lineitem_artball3d-Type_A-android-global-010-supplierDovin,type_A,supplier_B,35.953648,"6,089",11027
"2019-12-18",Fispio,Android,LA,df35dc3de32c4d6c4d2976ac77a674c8af532b47ef8c4c0fab59991bf1814546,lineitem_artball3d-Type_A-android-global-010-supplierDovin,type_A,supplier_B,35.953648,"6,089",952
"2019-12-18",Fispio,Android,LB,df35dc3de32c4d6c4d2976ac77a674c8af532b47ef8c4c0fab59991bf1814546,lineitem_artball3d-Type_A-android-global-010-supplierDovin,type_A,supplier_B,35.953648,"6,089",15121
"2019-12-18",Fispio,Android,LK,df35dc3de32c4d6c4d2976ac77a674c8af532b47ef8c4c0fab59991bf1814546,lineitem_artball3d-Type_A-android-global-010-supplierDovin,type_A,supplier_B,35.953648,"6,089",22380
"2019-12-18",Fispio,Android,LT,df35dc3de32c4d6c4d2976ac77a674c8af532b47ef8c4c0fab59991bf1814546,lineitem_artball3d-Type_A-android-global-010-supplierDovin,type_A,supplier_B,35.953648,"6,089",15885
"2019-12-18",Fispio,Android,MA,df35dc3de32c4d6c4d2976ac77a674c8af532b47ef8c4c0fab59991bf1814546,lineitem_artball3d-Type_A-android-global-010-supplierDovin,type_A,supplier_B,35.953648,"6,089",1036
"2019-12-18",Fispio,Android,MD,df35dc3de32c4d6c4d2976ac77a674c8af532b47ef8c4c0fab59991bf1814546,lineitem_artball3d-Type_A-android-global-010-supplierDovin,type_A,supplier_B,35.953648,"6,089",19667
"2019-12-18",Fispio,Android,MK,df35dc3de32c4d6c4d2976ac77a674c8af532b47ef8c4c0fab59991bf1814546,lineitem_artball3d-Type_A-android-global-010-supplierDovin,type_A,supplier_B,35.953648,"6,089",23024
"2019-12-18",Fispio,Android,MM,df35dc3de32c4d6c4d2976ac77a674c8af532b47ef8c4c0fab59991bf1814546,lineitem_artball3d-Type_A-android-global-010-supplierDovin,type_A,supplier_B,35.953648,"6,089",12211
"2019-12-18",Fispio,Android,MN,df35dc3de32c4d6c4d2976ac77a674c8af532b47ef8c4c0fab59991bf1814546,lineitem_artball3d-Type_A-android-global-010-supplierDovin,type_A,supplier_B,35.953648,"6,089",9323
"2019-12-18",Fispio,Android,MO,df35dc3de32c4d6c4d2976ac77a674c8af532b47ef8c4c0fab59991bf1814546,lineitem_artball3d-Type_A-android-global-010-supplierDovin,type_A,supplier_B,35.953648,"6,089",7031
"2019-12-18",Fispio,Android,MU,df35dc3de32c4d6c4d2976ac77a674c8af532b47ef8c4c0fab59991bf1814546,lineitem_artball3d-Type_A-android-global-010-supplierDovin,type_A,supplier_B,35.953648,"6,089",1190
"2019-12-18",Fispio,Android,MX,df35dc3de32c4d6c4d2976ac77a674c8af532b47ef8c4c0fab59991bf1814546,lineitem_artball3d-Type_A-android-global-010-supplierDovin,type_A,supplier_B,35.953648,"6,089",17337
"2019-12-18",Fispio,Android,MY,df35dc3de32c4d6c4d2976ac77a674c8af532b47ef8c4c0fab59991bf1814546,lineitem_artball3d-Type_A-android-global-010-supplierDovin,type_A,supplier_B,35.953648,"6,089",4324
"2019-12-18",Fispio,Android,MZ,df35dc3de32c4d6c4d2976ac77a674c8af532b47ef8c4c0fab59991bf1814546,lineitem_artball3d-Type_A-android-global-010-supplierDovin,type_A,supplier_B,35.953648,"6,089",7048
"2019-12-18",Fispio,Android,NG,df35dc3de32c4d6c4d2976ac77a674c8af532b47ef8c4c0fab59991bf1814546,lineitem_artball3d-Type_A-android-global-010-supplierDovin,type_A,supplier_B,35.953648,"6,089",14587
"2019-12-18",Fispio,Android,NL,df35dc3de32c4d6c4d2976ac77a674c8af532b47ef8c4c0fab59991bf1814546,lineitem_artball3d-Type_A-android-global-010-supplierDovin,type_A,supplier_B,35.953648,"6,089",16778
"2019-12-18",Fispio,Android,NO,df35dc3de32c4d6c4d2976ac77a674c8af532b47ef8c4c0fab59991bf1814546,lineitem_artball3d-Type_A-android-global-010-supplierDovin,type_A,supplier_B,35.953648,"6,089",1057
"2019-12-18",Fispio,Android,NP,df35dc3de32c4d6c4d2976ac77a674c8af532b47ef8c4c0fab59991bf1814546,lineitem_artball3d-Type_A-android-global-010-supplierDovin,type_A,supplier_B,35.953648,"6,089",8628
"2019-12-18",Fispio,Android,NZ,df35dc3de32c4d6c4d2976ac77a674c8af532b47ef8c4c0fab59991bf1814546,lineitem_artball3d-Type_A-android-global-010-supplierDovin,type_A,supplier_B,35.953648,"6,089",20051
"2019-12-18",Fispio,Android,OM,df35dc3de32c4d6c4d2976ac77a674c8af532b47ef8c4c0fab59991bf1814546,lineitem_artball3d-Type_A-android-global-010-supplierDovin,type_A,supplier_B,35.953648,"6,089",21400
"2019-12-18",Fispio,Android,PA,df35dc3de32c4d6c4d2976ac77a674c8af532b47ef8c4c0fab59991bf1814546,lineitem_artball3d-Type_A-android-global-010-supplierDovin,type_A,supplier_B,35.953648,"6,089",15255
"2019-12-18",Fispio,Android,PH,df35dc3de32c4d6c4d2976ac77a674c8af532b47ef8c4c0fab59991bf1814546,lineitem_artball3d-Type_A-android-global-010-supplierDovin,type_A,supplier_B,35.953648,"6,089",22579
"2019-12-18",Fispio,Android,PK,df35dc3de32c4d6c4d2976ac77a674c8af532b47ef8c4c0fab59991bf1814546,lineitem_artball3d-Type_A-android-global-010-supplierDovin,type_A,supplier_B,35.953648,"6,089",8317
"2019-12-18",Fispio,Android,PL,df35dc3de32c4d6c4d2976ac77a674c8af532b47ef8c4c0fab59991bf1814546,lineitem_artball3d-Type_A-android-global-010-supplierDovin,type_A,supplier_B,35.953648,"6,089",22741
"2019-12-18",Fispio,Android,PR,df35dc3de32c4d6c4d2976ac77a674c8af532b47ef8c4c0fab59991bf1814546,lineitem_artball3d-Type_A-android-global-010-supplierDovin,type_A,supplier_B,35.953648,"6,089",19228
"2019-12-18",Fispio,Android,PT,df35dc3de32c4d6c4d2976ac77a674c8af532b47ef8c4c0fab59991bf1814546,lineitem_artball3d-Type_A-android-global-010-supplierDovin,type_A,supplier_B,35.953648,"6,089",21950
"2019-12-18",Fispio,Android,RO,df35dc3de32c4d6c4d2976ac77a674c8af532b47ef8c4c0fab59991bf1814546,lineitem_artball3d-Type_A-android-global-010-supplierDovin,type_A,supplier_B,35.953648,"6,089",18522
"2019-12-18",Fispio,Android,RS,df35dc3de32c4d6c4d2976ac77a674c8af532b47ef8c4c0fab59991bf1814546,lineitem_artball3d-Type_A-android-global-010-supplierDovin,type_A,supplier_B,35.953648,"6,089",1857
"2019-12-18",Fispio,Android,RU,df35dc3de32c4d6c4d2976ac77a674c8af532b47ef8c4c0fab59991bf1814546,lineitem_artball3d-Type_A-android-global-010-supplierDovin,type_A,supplier_B,35.953648,"6,089",3669
"2019-12-18",Fispio,Android,SA,df35dc3de32c4d6c4d2976ac77a674c8af532b47ef8c4c0fab59991bf1814546,lineitem_artball3d-Type_A-android-global-010-supplierDovin,type_A,supplier_B,35.953648,"6,089",18032
"2019-12-18",Fispio,Android,SE,df35dc3de32c4d6c4d2976ac77a674c8af532b47ef8c4c0fab59991bf1814546,lineitem_artball3d-Type_A-android-global-010-supplierDovin,type_A,supplier_B,35.953648,"6,089",11919
"2019-12-18",Fispio,Android,SG,df35dc3de32c4d6c4d2976ac77a674c8af532b47ef8c4c0fab59991bf1814546,lineitem_artball3d-Type_A-android-global-010-supplierDovin,type_A,supplier_B,35.953648,"6,089",763
"2019-12-18",Fispio,Android,SV,df35dc3de32c4d6c4d2976ac77a674c8af532b47ef8c4c0fab59991bf1814546,lineitem_artball3d-Type_A-android-global-010-supplierDovin,type_A,supplier_B,35.953648,"6,089",18168
"2019-12-18",Fispio,Android,SX,df35dc3de32c4d6c4d2976ac77a674c8af532b47ef8c4c0fab59991bf1814546,lineitem_artball3d-Type_A-android-global-010-supplierDovin,type_A,supplier_B,35.953648,"6,089",7063
"2019-12-18",Fispio,Android,TH,df35dc3de32c4d6c4d2976ac77a674c8af532b47ef8c4c0fab59991bf1814546,lineitem_artball3d-Type_A-android-global-010-supplierDovin,type_A,supplier_B,35.953648,"6,089",20675
"2019-12-18",Fispio,Android,TN,df35dc3de32c4d6c4d2976ac77a674c8af532b47ef8c4c0fab59991bf1814546,lineitem_artball3d-Type_A-android-global-010-supplierDovin,type_A,supplier_B,35.953648,"6,089",13991
"2019-12-18",Fispio,Android,TR,df35dc3de32c4d6c4d2976ac77a674c8af532b47ef8c4c0fab59991bf1814546,lineitem_artball3d-Type_A-android-global-010-supplierDovin,type_A,supplier_B,35.953648,"6,089",18392
"2019-12-18",Fispio,Android,TT,df35dc3de32c4d6c4d2976ac77a674c8af532b47ef8c4c0fab59991bf1814546,lineitem_artball3d-Type_A-android-global-010-supplierDovin,type_A,supplier_B,35.953648,"6,089",13327
"2019-12-18",Fispio,Android,TW,df35dc3de32c4d6c4d2976ac77a674c8af532b47ef8c4c0fab59991bf1814546,lineitem_artball3d-Type_A-android-global-010-supplierDovin,type_A,supplier_B,35.953648,"6,089",22327
"2019-12-18",Fispio,Android,UA,df35dc3de32c4d6c4d2976ac77a674c8af532b47ef8c4c0fab59991bf1814546,lineitem_artball3d-Type_A-android-global-010-supplierDovin,type_A,supplier_B,35.953648,"6,089",21697
"2019-12-18",Fispio,Android,US,df35dc3de32c4d6c4d2976ac77a674c8af532b47ef8c4c0fab59991bf1814546,lineitem_artball3d-Type_A-android-global-010-supplierDovin,type_A,supplier_B,35.953648,"6,089",17372
"2019-12-18",Fispio,Android,VN,df35dc3de32c4d6c4d2976ac77a674c8af532b47ef8c4c0fab59991bf1814546,lineitem_artball3d-Type_A-android-global-010-supplierDovin,type_A,supplier_B,35.953648,"6,089",1561
"2019-12-18",Fispio,Android,VU,df35dc3de32c4d6c4d2976ac77a674c8af532b47ef8c4c0fab59991bf1814546,lineitem_artball3d-Type_A-android-global-010-supplierDovin,type_A,supplier_B,35.953648,"6,089",15709
"2019-12-18",Fispio,Android,ZA,df35dc3de32c4d6c4d2976ac77a674c8af532b47ef8c4c0fab59991bf1814546,lineitem_artball3d-Type_A-android-global-010-supplierDovin,type_A,supplier_B,35.953648,"6,089",3929
"2019-12-18T00:00:00.000Z",Pikesio,Android,AR,"9c48a13c9ed40789b7bd40bc94c703a359623786b9aa748accdfa16a27e1d6f5",lineitem_pikesio-Type_A-android-global-000-supplierD,type_A,supplier_D,499,35.485332,9089
"2019-12-18T00:00:00.000Z",Pikesio,Android,AR,"9c48a13c9ed40789b7bd40bc94c703a359623786b9aa748accdfa16a27e1d6f5",lineitem_pikesio-Type_A-android-global-000-supplierD,type_A,supplier_D,5864,123.148637,9089
"2019-12-18T00:00:00.000Z",Pikesio,Android,AR,db848066a028d64164fbf4c7f6f8dadff45656e1ef87083f7a6c9816e3319356,lineitem_pikesio-Type_B-android-global-000-supplierD,format_A,supplier_D,499,35.485332,10034
"2019-12-18T00:00:00.000Z",Pikesio,Android,BE,"9c48a13c9ed40789b7bd40bc94c703a359623786b9aa748accdfa16a27e1d6f5",lineitem_pikesio-Type_A-android-global-000-supplierD,type_A,supplier_D,499,35.485332,17827
"2019-12-18T00:00:00.000Z",Pikesio,Android,BE,"9c48a13c9ed40789b7bd40bc94c703a359623786b9aa748accdfa16a27e1d6f5",lineitem_pikesio-Type_A-android-global-000-supplierD,type_A,supplier_D,5864,123.148637,17827
"2019-12-18T00:00:00.000Z",Pikesio,Android,BO,"9c48a13c9ed40789b7bd40bc94c703a359623786b9aa748accdfa16a27e1d6f5",lineitem_pikesio-Type_A-android-global-000-supplierD,type_A,supplier_D,499,35.485332,13331
"2019-12-18T00:00:00.000Z",Pikesio,Android,BO,"9c48a13c9ed40789b7bd40bc94c703a359623786b9aa748accdfa16a27e1d6f5",lineitem_pikesio-Type_A-android-global-000-supplierD,type_A,supplier_D,5864,123.148637,13331
"2019-12-18T00:00:00.000Z",Pikesio,Android,BO,db848066a028d64164fbf4c7f6f8dadff45656e1ef87083f7a6c9816e3319356,lineitem_pikesio-Type_B-android-global-000-supplierD,format_A,supplier_D,499,35.485332,14224
"2019-12-18T00:00:00.000Z",Pikesio,Android,BR,"9c48a13c9ed40789b7bd40bc94c703a359623786b9aa748accdfa16a27e1d6f5",lineitem_pikesio-Type_A-android-global-000-supplierD,type_A,supplier_D,499,35.485332,11292
"2019-12-18T00:00:00.000Z",Pikesio,Android,BR,"9c48a13c9ed40789b7bd40bc94c703a359623786b9aa748accdfa16a27e1d6f5",lineitem_pikesio-Type_A-android-global-000-supplierD,type_A,supplier_D,5864,123.148637,11292
"2019-12-18T00:00:00.000Z",Pikesio,Android,BR,db848066a028d64164fbf4c7f6f8dadff45656e1ef87083f7a6c9816e3319356,lineitem_pikesio-Type_B-android-global-000-supplierD,format_A,supplier_D,499,35.485332,1371
"2019-12-18T00:00:00.000Z",Pikesio,Android,BY,"9c48a13c9ed40789b7bd40bc94c703a359623786b9aa748accdfa16a27e1d6f5",lineitem_pikesio-Type_A-android-global-000-supplierD,type_A,supplier_D,499,35.485332,8931
"2019-12-18T00:00:00.000Z",Pikesio,Android,BY,"9c48a13c9ed40789b7bd40bc94c703a359623786b9aa748accdfa16a27e1d6f5",lineitem_pikesio-Type_A-android-global-000-supplierD,type_A,supplier_D,5864,123.148637,8931
"2019-12-18T00:00:00.000Z",Pikesio,Android,CA,db848066a028d64164fbf4c7f6f8dadff45656e1ef87083f7a6c9816e3319356,lineitem_pikesio-Type_B-android-global-000-supplierD,format_A,supplier_D,499,35.485332,1891
"2019-12-18T00:00:00.000Z",Pikesio,Android,CL,"9c48a13c9ed40789b7bd40bc94c703a359623786b9aa748accdfa16a27e1d6f5",lineitem_pikesio-Type_A-android-global-000-supplierD,type_A,supplier_D,499,35.485332,8166
"2019-12-18T00:00:00.000Z",Pikesio,Android,CL,"9c48a13c9ed40789b7bd40bc94c703a359623786b9aa748accdfa16a27e1d6f5",lineitem_pikesio-Type_A-android-global-000-supplierD,type_A,supplier_D,5864,123.148637,8166
"2019-12-18T00:00:00.000Z",Pikesio,Android,CL,db848066a028d64164fbf4c7f6f8dadff45656e1ef87083f7a6c9816e3319356,lineitem_pikesio-Type_B-android-global-000-supplierD,format_A,supplier_D,499,35.485332,10425
"2019-12-18T00:00:00.000Z",Pikesio,Android,CN,"9c48a13c9ed40789b7bd40bc94c703a359623786b9aa748accdfa16a27e1d6f5",lineitem_pikesio-Type_A-android-global-000-supplierD,type_A,supplier_D,499,35.485332,4793
"2019-12-18T00:00:00.000Z",Pikesio,Android,CN,"9c48a13c9ed40789b7bd40bc94c703a359623786b9aa748accdfa16a27e1d6f5",lineitem_pikesio-Type_A-android-global-000-supplierD,type_A,supplier_D,5864,123.148637,4793
"2019-12-18T00:00:00.000Z",Pikesio,Android,CN,db848066a028d64164fbf4c7f6f8dadff45656e1ef87083f7a6c9816e3319356,lineitem_pikesio-Type_B-android-global-000-supplierD,format_A,supplier_D,499,35.485332,8802
"2019-12-18T00:00:00.000Z",Pikesio,Android,CO,"9c48a13c9ed40789b7bd40bc94c703a359623786b9aa748accdfa16a27e1d6f5",lineitem_pikesio-Type_A-android-global-000-supplierD,type_A,supplier_D,499,35.485332,17383
"2019-12-18T00:00:00.000Z",Pikesio,Android,CO,"9c48a13c9ed40789b7bd40bc94c703a359623786b9aa748accdfa16a27e1d6f5",lineitem_pikesio-Type_A-android-global-000-supplierD,type_A,supplier_D,5864,123.148637,17383
"2019-12-18T00:00:00.000Z",Pikesio,Android,CZ,"9c48a13c9ed40789b7bd40bc94c703a359623786b9aa748accdfa16a27e1d6f5",lineitem_pikesio-Type_A-android-global-000-supplierD,type_A,supplier_D,499,35.485332,17232
"2019-12-18T00:00:00.000Z",Pikesio,Android,CZ,"9c48a13c9ed40789b7bd40bc94c703a359623786b9aa748accdfa16a27e1d6f5",lineitem_pikesio-Type_A-android-global-000-supplierD,type_A,supplier_D,5864,123.148637,17232
"2019-12-18T00:00:00.000Z",Pikesio,Android,DE,"9c48a13c9ed40789b7bd40bc94c703a359623786b9aa748accdfa16a27e1d6f5",lineitem_pikesio-Type_A-android-global-000-supplierD,type_A,supplier_D,499,35.485332,17741
"2019-12-18T00:00:00.000Z",Pikesio,Android,DE,"9c48a13c9ed40789b7bd40bc94c703a359623786b9aa748accdfa16a27e1d6f5",lineitem_pikesio-Type_A-android-global-000-supplierD,type_A,supplier_D,5864,123.148637,17741
"2019-12-18T00:00:00.000Z",Pikesio,Android,DO,"9c48a13c9ed40789b7bd40bc94c703a359623786b9aa748accdfa16a27e1d6f5",lineitem_pikesio-Type_A-android-global-000-supplierD,type_A,supplier_D,499,35.485332,14913
"2019-12-18T00:00:00.000Z",Pikesio,Android,DO,"9c48a13c9ed40789b7bd40bc94c703a359623786b9aa748accdfa16a27e1d6f5",lineitem_pikesio-Type_A-android-global-000-supplierD,type_A,supplier_D,5864,123.148637,14913
"2019-12-18T00:00:00.000Z",Pikesio,Android,EE,"9c48a13c9ed40789b7bd40bc94c703a359623786b9aa748accdfa16a27e1d6f5",lineitem_pikesio-Type_A-android-global-000-supplierD,type_A,supplier_D,499,35.485332,6011
"2019-12-18T00:00:00.000Z",Pikesio,Android,EE,"9c48a13c9ed40789b7bd40bc94c703a359623786b9aa748accdfa16a27e1d6f5",lineitem_pikesio-Type_A-android-global-000-supplierD,type_A,supplier_D,5864,123.148637,6011
"2019-12-18T00:00:00.000Z",Pikesio,Android,EG,"9c48a13c9ed40789b7bd40bc94c703a359623786b9aa748accdfa16a27e1d6f5",lineitem_pikesio-Type_A-android-global-000-supplierD,type_A,supplier_D,499,35.485332,14759
"2019-12-18T00:00:00.000Z",Pikesio,Android,EG,"9c48a13c9ed40789b7bd40bc94c703a359623786b9aa748accdfa16a27e1d6f5",lineitem_pikesio-Type_A-android-global-000-supplierD,type_A,supplier_D,5864,123.148637,14759
"2019-12-18T00:00:00.000Z",Pikesio,Android,ES,"9c48a13c9ed40789b7bd40bc94c703a359623786b9aa748accdfa16a27e1d6f5",lineitem_pikesio-Type_A-android-global-000-supplierD,type_A,supplier_D,499,35.485332,20401
"2019-12-18T00:00:00.000Z",Pikesio,Android,ES,"9c48a13c9ed40789b7bd40bc94c703a359623786b9aa748accdfa16a27e1d6f5",lineitem_pikesio-Type_A-android-global-000-supplierD,type_A,supplier_D,5864,123.148637,20401
"2019-12-18T00:00:00.000Z",Pikesio,Android,ES,db848066a028d64164fbf4c7f6f8dadff45656e1ef87083f7a6c9816e3319356,lineitem_pikesio-Type_B-android-global-000-supplierD,format_A,supplier_D,499,35.485332,8281
"2019-12-18T00:00:00.000Z",Pikesio,Android,FI,"9c48a13c9ed40789b7bd40bc94c703a359623786b9aa748accdfa16a27e1d6f5",lineitem_pikesio-Type_A-android-global-000-supplierD,type_A,supplier_D,499,35.485332,6958
"2019-12-18T00:00:00.000Z",Pikesio,Android,FI,"9c48a13c9ed40789b7bd40bc94c703a359623786b9aa748accdfa16a27e1d6f5",lineitem_pikesio-Type_A-android-global-000-supplierD,type_A,supplier_D,5864,123.148637,6958
"2019-12-18T00:00:00.000Z",Pikesio,Android,FR,"9c48a13c9ed40789b7bd40bc94c703a359623786b9aa748accdfa16a27e1d6f5",lineitem_pikesio-Type_A-android-global-000-supplierD,type_A,supplier_D,499,35.485332,12178
"2019-12-18T00:00:00.000Z",Pikesio,Android,FR,"9c48a13c9ed40789b7bd40bc94c703a359623786b9aa748accdfa16a27e1d6f5",lineitem_pikesio-Type_A-android-global-000-supplierD,type_A,supplier_D,5864,123.148637,12178
"2019-12-18T00:00:00.000Z",Pikesio,Android,FR,db848066a028d64164fbf4c7f6f8dadff45656e1ef87083f7a6c9816e3319356,lineitem_pikesio-Type_B-android-global-000-supplierD,format_A,supplier_D,499,35.485332,10762
"2019-12-18T00:00:00.000Z",Pikesio,Android,HK,"9c48a13c9ed40789b7bd40bc94c703a359623786b9aa748accdfa16a27e1d6f5",lineitem_pikesio-Type_A-android-global-000-supplierD,type_A,supplier_D,499,35.485332,23695
"2019-12-18T00:00:00.000Z",Pikesio,Android,HK,"9c48a13c9ed40789b7bd40bc94c703a359623786b9aa748accdfa16a27e1d6f5",lineitem_pikesio-Type_A-android-global-000-supplierD,type_A,supplier_D,5864,123.148637,23695
"2019-12-18T00:00:00.000Z",Pikesio,Android,HK,db848066a028d64164fbf4c7f6f8dadff45656e1ef87083f7a6c9816e3319356,lineitem_pikesio-Type_B-android-global-000-supplierD,format_A,supplier_D,499,35.485332,15377
"2019-12-18T00:00:00.000Z",Pikesio,Android,HR,db848066a028d64164fbf4c7f6f8dadff45656e1ef87083f7a6c9816e3319356,lineitem_pikesio-Type_B-android-global-000-supplierD,format_A,supplier_D,499,35.485332,17229
"2019-12-18T00:00:00.000Z",Pikesio,Android,HU,db848066a028d64164fbf4c7f6f8dadff45656e1ef87083f7a6c9816e3319356,lineitem_pikesio-Type_B-android-global-000-supplierD,format_A,supplier_D,499,35.485332,14784
"2019-12-18T00:00:00.000Z",Pikesio,Android,ID,"9c48a13c9ed40789b7bd40bc94c703a359623786b9aa748accdfa16a27e1d6f5",lineitem_pikesio-Type_A-android-global-000-supplierD,type_A,supplier_D,499,35.485332,23397
"2019-12-18T00:00:00.000Z",Pikesio,Android,ID,"9c48a13c9ed40789b7bd40bc94c703a359623786b9aa748accdfa16a27e1d6f5",lineitem_pikesio-Type_A-android-global-000-supplierD,type_A,supplier_D,5864,123.148637,23397
"2019-12-18T00:00:00.000Z",Pikesio,Android,ID,db848066a028d64164fbf4c7f6f8dadff45656e1ef87083f7a6c9816e3319356,lineitem_pikesio-Type_B-android-global-000-supplierD,format_A,supplier_D,499,35.485332,6198
"2019-12-18T00:00:00.000Z",Pikesio,Android,IL,"9c48a13c9ed40789b7bd40bc94c703a359623786b9aa748accdfa16a27e1d6f5",lineitem_pikesio-Type_A-android-global-000-supplierD,type_A,supplier_D,499,35.485332,17836
"2019-12-18T00:00:00.000Z",Pikesio,Android,IL,"9c48a13c9ed40789b7bd40bc94c703a359623786b9aa748accdfa16a27e1d6f5",lineitem_pikesio-Type_A-android-global-000-supplierD,type_A,supplier_D,5864,123.148637,17836
"2019-12-18T00:00:00.000Z",Pikesio,Android,IN,"9c48a13c9ed40789b7bd40bc94c703a359623786b9aa748accdfa16a27e1d6f5",lineitem_pikesio-Type_A-android-global-000-supplierD,type_A,supplier_D,499,35.485332,21176
"2019-12-18T00:00:00.000Z",Pikesio,Android,IN,"9c48a13c9ed40789b7bd40bc94c703a359623786b9aa748accdfa16a27e1d6f5",lineitem_pikesio-Type_A-android-global-000-supplierD,type_A,supplier_D,5864,123.148637,21176
"2019-12-18T00:00:00.000Z",Pikesio,Android,IN,db848066a028d64164fbf4c7f6f8dadff45656e1ef87083f7a6c9816e3319356,lineitem_pikesio-Type_B-android-global-000-supplierD,format_A,supplier_D,499,35.485332,15725
"2019-12-18T00:00:00.000Z",Pikesio,Android,IQ,"9c48a13c9ed40789b7bd40bc94c703a359623786b9aa748accdfa16a27e1d6f5",lineitem_pikesio-Type_A-android-global-000-supplierD,type_A,supplier_D,499,35.485332,17728
"2019-12-18T00:00:00.000Z",Pikesio,Android,IQ,"9c48a13c9ed40789b7bd40bc94c703a359623786b9aa748accdfa16a27e1d6f5",lineitem_pikesio-Type_A-android-global-000-supplierD,type_A,supplier_D,5864,123.148637,17728
"2019-12-18T00:00:00.000Z",Pikesio,Android,IQ,db848066a028d64164fbf4c7f6f8dadff45656e1ef87083f7a6c9816e3319356,lineitem_pikesio-Type_B-android-global-000-supplierD,format_A,supplier_D,499,35.485332,4184
"2019-12-18T00:00:00.000Z",Pikesio,Android,JP,"9c48a13c9ed40789b7bd40bc94c703a359623786b9aa748accdfa16a27e1d6f5",lineitem_pikesio-Type_A-android-global-000-supplierD,type_A,supplier_D,499,35.485332,17984
"2019-12-18T00:00:00.000Z",Pikesio,Android,JP,"9c48a13c9ed40789b7bd40bc94c703a359623786b9aa748accdfa16a27e1d6f5",lineitem_pikesio-Type_A-android-global-000-supplierD,type_A,supplier_D,5864,123.148637,17984
"2019-12-18T00:00:00.000Z",Pikesio,Android,KG,"9c48a13c9ed40789b7bd40bc94c703a359623786b9aa748accdfa16a27e1d6f5",lineitem_pikesio-Type_A-android-global-000-supplierD,type_A,supplier_D,499,35.485332,3918
"2019-12-18T00:00:00.000Z",Pikesio,Android,KG,"9c48a13c9ed40789b7bd40bc94c703a359623786b9aa748accdfa16a27e1d6f5",lineitem_pikesio-Type_A-android-global-000-supplierD,type_A,supplier_D,5864,123.148637,3918
"2019-12-18T00:00:00.000Z",Pikesio,Android,KG,db848066a028d64164fbf4c7f6f8dadff45656e1ef87083f7a6c9816e3319356,lineitem_pikesio-Type_B-android-global-000-supplierD,format_A,supplier_D,499,35.485332,8912
"2019-12-18T00:00:00.000Z",Pikesio,Android,KH,"9c48a13c9ed40789b7bd40bc94c703a359623786b9aa748accdfa16a27e1d6f5",lineitem_pikesio-Type_A-android-global-000-supplierD,type_A,supplier_D,499,35.485332,4769
"2019-12-18T00:00:00.000Z",Pikesio,Android,KH,db848066a028d64164fbf4c7f6f8dadff45656e1ef87083f7a6c9816e3319356,lineitem_pikesio-Type_B-android-global-000-supplierD,format_A,supplier_D,499,35.485332,21502
"2019-12-18T00:00:00.000Z",Pikesio,Android,KZ,"9c48a13c9ed40789b7bd40bc94c703a359623786b9aa748accdfa16a27e1d6f5",lineitem_pikesio-Type_A-android-global-000-supplierD,type_A,supplier_D,499,35.485332,11473
"2019-12-18T00:00:00.000Z",Pikesio,Android,LT,"9c48a13c9ed40789b7bd40bc94c703a359623786b9aa748accdfa16a27e1d6f5",lineitem_pikesio-Type_A-android-global-000-supplierD,type_A,supplier_D,499,35.485332,15934
"2019-12-18T00:00:00.000Z",Pikesio,Android,LV,"9c48a13c9ed40789b7bd40bc94c703a359623786b9aa748accdfa16a27e1d6f5",lineitem_pikesio-Type_A-android-global-000-supplierD,type_A,supplier_D,499,35.485332,8009
"2019-12-18T00:00:00.000Z",Pikesio,Android,LV,db848066a028d64164fbf4c7f6f8dadff45656e1ef87083f7a6c9816e3319356,lineitem_pikesio-Type_B-android-global-000-supplierD,format_A,supplier_D,499,35.485332,6489
"2019-12-18T00:00:00.000Z",Pikesio,Android,MA,"9c48a13c9ed40789b7bd40bc94c703a359623786b9aa748accdfa16a27e1d6f5",lineitem_pikesio-Type_A-android-global-000-supplierD,type_A,supplier_D,499,35.485332,15533
"2019-12-18T00:00:00.000Z",Pikesio,Android,MX,"9c48a13c9ed40789b7bd40bc94c703a359623786b9aa748accdfa16a27e1d6f5",lineitem_pikesio-Type_A-android-global-000-supplierD,type_A,supplier_D,499,35.485332,2575
"2019-12-18T00:00:00.000Z",Pikesio,Android,MY,"9c48a13c9ed40789b7bd40bc94c703a359623786b9aa748accdfa16a27e1d6f5",lineitem_pikesio-Type_A-android-global-000-supplierD,type_A,supplier_D,499,35.485332,20119
"2019-12-18T00:00:00.000Z",Pikesio,Android,MY,db848066a028d64164fbf4c7f6f8dadff45656e1ef87083f7a6c9816e3319356,lineitem_pikesio-Type_B-android-global-000-supplierD,format_A,supplier_D,499,35.485332,11677
"2019-12-18T00:00:00.000Z",Pikesio,Android,NL,"9c48a13c9ed40789b7bd40bc94c703a359623786b9aa748accdfa16a27e1d6f5",lineitem_pikesio-Type_A-android-global-000-supplierD,type_A,supplier_D,499,35.485332,22008
"2019-12-18T00:00:00.000Z",Pikesio,Android,NL,db848066a028d64164fbf4c7f6f8dadff45656e1ef87083f7a6c9816e3319356,lineitem_pikesio-Type_B-android-global-000-supplierD,format_A,supplier_D,499,35.485332,22738
"2019-12-18T00:00:00.000Z",Pikesio,Android,PE,"9c48a13c9ed40789b7bd40bc94c703a359623786b9aa748accdfa16a27e1d6f5",lineitem_pikesio-Type_A-android-global-000-supplierD,type_A,supplier_D,499,35.485332,5639
"2019-12-18T00:00:00.000Z",Pikesio,Android,PE,db848066a028d64164fbf4c7f6f8dadff45656e1ef87083f7a6c9816e3319356,lineitem_pikesio-Type_B-android-global-000-supplierD,format_A,supplier_D,499,35.485332,11509
"2019-12-18T00:00:00.000Z",Pikesio,Android,PH,"9c48a13c9ed40789b7bd40bc94c703a359623786b9aa748accdfa16a27e1d6f5",lineitem_pikesio-Type_A-android-global-000-supplierD,type_A,supplier_D,499,35.485332,13692
"2019-12-18T00:00:00.000Z",Pikesio,Android,PH,db848066a028d64164fbf4c7f6f8dadff45656e1ef87083f7a6c9816e3319356,lineitem_pikesio-Type_B-android-global-000-supplierD,format_A,supplier_D,499,35.485332,21805
"2019-12-18T00:00:00.000Z",Pikesio,Android,PK,"9c48a13c9ed40789b7bd40bc94c703a359623786b9aa748accdfa16a27e1d6f5",lineitem_pikesio-Type_A-android-global-000-supplierD,type_A,supplier_D,499,35.485332,6046
"2019-12-18T00:00:00.000Z",Pikesio,Android,PL,"9c48a13c9ed40789b7bd40bc94c703a359623786b9aa748accdfa16a27e1d6f5",lineitem_pikesio-Type_A-android-global-000-supplierD,type_A,supplier_D,499,35.485332,15167
"2019-12-18T00:00:00.000Z",Pikesio,Android,PL,db848066a028d64164fbf4c7f6f8dadff45656e1ef87083f7a6c9816e3319356,lineitem_pikesio-Type_B-android-global-000-supplierD,format_A,supplier_D,499,35.485332,14213
"2019-12-18T00:00:00.000Z",Pikesio,Android,PT,"9c48a13c9ed40789b7bd40bc94c703a359623786b9aa748accdfa16a27e1d6f5",lineitem_pikesio-Type_A-android-global-000-supplierD,type_A,supplier_D,499,35.485332,21559
"2019-12-18T00:00:00.000Z",Pikesio,Android,PT,db848066a028d64164fbf4c7f6f8dadff45656e1ef87083f7a6c9816e3319356,lineitem_pikesio-Type_B-android-global-000-supplierD,format_A,supplier_D,499,35.485332,20373
"2019-12-18T00:00:00.000Z",Pikesio,Android,RE,"9c48a13c9ed40789b7bd40bc94c703a359623786b9aa748accdfa16a27e1d6f5",lineitem_pikesio-Type_A-android-global-000-supplierD,type_A,supplier_D,499,35.485332,3949
"2019-12-18T00:00:00.000Z",Pikesio,Android,RO,"9c48a13c9ed40789b7bd40bc94c703a359623786b9aa748accdfa16a27e1d6f5",lineitem_pikesio-Type_A-android-global-000-supplierD,type_A,supplier_D,499,35.485332,12191
"2019-12-18T00:00:00.000Z",Pikesio,Android,RU,"9c48a13c9ed40789b7bd40bc94c703a359623786b9aa748accdfa16a27e1d6f5",lineitem_pikesio-Type_A-android-global-000-supplierD,type_A,supplier_D,499,35.485332,2247
"2019-12-18T00:00:00.000Z",Pikesio,Android,RU,db848066a028d64164fbf4c7f6f8dadff45656e1ef87083f7a6c9816e3319356,lineitem_pikesio-Type_B-android-global-000-supplierD,format_A,supplier_D,499,35.485332,805
"2019-12-18T00:00:00.000Z",Pikesio,Android,SA,"9c48a13c9ed40789b7bd40bc94c703a359623786b9aa748accdfa16a27e1d6f5",lineitem_pikesio-Type_A-android-global-000-supplierD,type_A,supplier_D,499,35.485332,23183
"2019-12-18T00:00:00.000Z",Pikesio,Android,SE,"9c48a13c9ed40789b7bd40bc94c703a359623786b9aa748accdfa16a27e1d6f5",lineitem_pikesio-Type_A-android-global-000-supplierD,type_A,supplier_D,499,35.485332,8580
"2019-12-18T00:00:00.000Z",Pikesio,Android,SV,"9c48a13c9ed40789b7bd40bc94c703a359623786b9aa748accdfa16a27e1d6f5",lineitem_pikesio-Type_A-android-global-000-supplierD,type_A,supplier_D,499,35.485332,19827
"2019-12-18T00:00:00.000Z",Pikesio,Android,TH,"9c48a13c9ed40789b7bd40bc94c703a359623786b9aa748accdfa16a27e1d6f5",lineitem_pikesio-Type_A-android-global-000-supplierD,type_A,supplier_D,499,35.485332,9647
"2019-12-18T00:00:00.000Z",Pikesio,Android,TH,db848066a028d64164fbf4c7f6f8dadff45656e1ef87083f7a6c9816e3319356,lineitem_pikesio-Type_B-android-global-000-supplierD,format_A,supplier_D,499,35.485332,20754
"2019-12-18T00:00:00.000Z",Pikesio,Android,TR,"9c48a13c9ed40789b7bd40bc94c703a359623786b9aa748accdfa16a27e1d6f5",lineitem_pikesio-Type_A-android-global-000-supplierD,type_A,supplier_D,499,35.485332,10243
"2019-12-18T00:00:00.000Z",Pikesio,Android,TR,db848066a028d64164fbf4c7f6f8dadff45656e1ef87083f7a6c9816e3319356,lineitem_pikesio-Type_B-android-global-000-supplierD,format_A,supplier_D,499,35.485332,7994
"2019-12-18T00:00:00.000Z",Pikesio,Android,UA,"9c48a13c9ed40789b7bd40bc94c703a359623786b9aa748accdfa16a27e1d6f5",lineitem_pikesio-Type_A-android-global-000-supplierD,type_A,supplier_D,499,35.485332,10764
"2019-12-18T00:00:00.000Z",Pikesio,Android,US,"9c48a13c9ed40789b7bd40bc94c703a359623786b9aa748accdfa16a27e1d6f5",lineitem_pikesio-Type_A-android-global-000-supplierD,type_A,supplier_D,499,35.485332,5763
"2019-12-18T00:00:00.000Z",Pikesio,Android,US,db848066a028d64164fbf4c7f6f8dadff45656e1ef87083f7a6c9816e3319356,lineitem_pikesio-Type_B-android-global-000-supplierD,format_A,supplier_D,499,35.485332,18199
"2019-12-18T00:00:00.000Z",Pikesio,Android,VE,"9c48a13c9ed40789b7bd40bc94c703a359623786b9aa748accdfa16a27e1d6f5",lineitem_pikesio-Type_A-android-global-000-supplierD,type_A,supplier_D,499,35.485332,16425
"2019-12-18T00:00:00.000Z",Pikesio,Android,VE,db848066a028d64164fbf4c7f6f8dadff45656e1ef87083f7a6c9816e3319356,lineitem_pikesio-Type_B-android-global-000-supplierD,format_A,supplier_D,499,35.485332,23141
"2019-12-18T00:00:00.000Z",Pikesio,Android,VN,"9c48a13c9ed40789b7bd40bc94c703a359623786b9aa748accdfa16a27e1d6f5",lineitem_pikesio-Type_A-android-global-000-supplierD,type_A,supplier_D,499,35.485332,13604
"2019-12-18T00:00:00.000Z",Pikesio,Android,VN,db848066a028d64164fbf4c7f6f8dadff45656e1ef87083f7a6c9816e3319356,lineitem_pikesio-Type_B-android-global-000-supplierD,format_A,supplier_D,499,35.485332,12191
"2019-12-18T08:00:00+0000","4096MergeMatch",Android,AM,"4646d3453c0b5ed0a501fb25ef42d620a42d644502135adcdbe0d43b3439f367",lineitem_2048mergematch-Type_C-ios-global-0090-supplierC,type_A,supplier_C,unknown,553,9644
"2019-12-18T08:00:00+0000","4096MergeMatch",Android,AM,afb2e3d6f293b9871a67b2acd3f6ea913e6e759acdbe1846b395ad2b4ba07334,lineitem_2048mergematch-Type_A-ios-global-010-supplierC,type_A,supplier_C,unknown,"4,068",9181
"2019-12-18T08:00:00+0000","4096MergeMatch",Android,AR,"4646d3453c0b5ed0a501fb25ef42d620a42d644502135adcdbe0d43b3439f367",lineitem_2048mergematch-Type_C-ios-global-0090-supplierC,type_A,supplier_C,unknown,553,8707
"2019-12-18T08:00:00+0000","4096MergeMatch",Android,AR,afb2e3d6f293b9871a67b2acd3f6ea913e6e759acdbe1846b395ad2b4ba07334,lineitem_2048mergematch-Type_A-ios-global-010-supplierC,type_A,supplier_C,unknown,"4,068",17554
"2019-12-18T08:00:00+0000","4096MergeMatch",Android,AU,afb2e3d6f293b9871a67b2acd3f6ea913e6e759acdbe1846b395ad2b4ba07334,lineitem_2048mergematch-Type_A-ios-global-010-supplierC,type_A,supplier_C,unknown,"4,068",16569
"2019-12-18T08:00:00+0000","4096MergeMatch",Android,AZ,"4646d3453c0b5ed0a501fb25ef42d620a42d644502135adcdbe0d43b3439f367",lineitem_2048mergematch-Type_C-ios-global-0090-supplierC,type_A,supplier_C,unknown,553,5362
"2019-12-18T08:00:00+0000","4096MergeMatch",Android,AZ,afb2e3d6f293b9871a67b2acd3f6ea913e6e759acdbe1846b395ad2b4ba07334,lineitem_2048mergematch-Type_A-ios-global-010-supplierC,type_A,supplier_C,unknown,"4,068",20400
"2019-12-18T08:00:00+0000","4096MergeMatch",Android,BR,"4646d3453c0b5ed0a501fb25ef42d620a42d644502135adcdbe0d43b3439f367",lineitem_2048mergematch-Type_C-ios-global-0090-supplierC,type_A,supplier_C,unknown,553,9294
"2019-12-18T08:00:00+0000","4096MergeMatch",Android,BR,afb2e3d6f293b9871a67b2acd3f6ea913e6e759acdbe1846b395ad2b4ba07334,lineitem_2048mergematch-Type_A-ios-global-010-supplierC,type_A,supplier_C,unknown,"4,068",18182
"2019-12-18T08:00:00+0000","4096MergeMatch",Android,CA,"4646d3453c0b5ed0a501fb25ef42d620a42d644502135adcdbe0d43b3439f367",lineitem_2048mergematch-Type_C-ios-global-0090-supplierC,type_A,supplier_C,unknown,553,2417
"2019-12-18T08:00:00+0000","4096MergeMatch",Android,CA,"4646d3453c0b5ed0a501fb25ef42d620a42d644502135adcdbe0d43b3439f367",lineitem_2048mergematch-Type_C-ios-global-0090-supplierC,type_A,supplier_C,unknown,553,23408
"2019-12-18T08:00:00+0000","4096MergeMatch",Android,CA,afb2e3d6f293b9871a67b2acd3f6ea913e6e759acdbe1846b395ad2b4ba07334,lineitem_2048mergematch-Type_A-ios-global-010-supplierC,type_A,supplier_C,unknown,"4,068",1520
"2019-12-18T08:00:00+0000","4096MergeMatch",Android,CA,afb2e3d6f293b9871a67b2acd3f6ea913e6e759acdbe1846b395ad2b4ba07334,lineitem_2048mergematch-Type_A-ios-global-010-supplierC,type_A,supplier_C,unknown,"4,068",13209
"2019-12-18T08:00:00+0000","4096MergeMatch",Android,CH,"4646d3453c0b5ed0a501fb25ef42d620a42d644502135adcdbe0d43b3439f367",lineitem_2048mergematch-Type_C-ios-global-0090-supplierC,type_A,supplier_C,unknown,553,23763
"2019-12-18T08:00:00+0000","4096MergeMatch",Android,CH,afb2e3d6f293b9871a67b2acd3f6ea913e6e759acdbe1846b395ad2b4ba07334,lineitem_2048mergematch-Type_A-ios-global-010-supplierC,type_A,supplier_C,unknown,"4,068",4740
"2019-12-18T08:00:00+0000","4096MergeMatch",Android,DE,"4646d3453c0b5ed0a501fb25ef42d620a42d644502135adcdbe0d43b3439f367",lineitem_2048mergematch-Type_C-ios-global-0090-supplierC,type_A,supplier_C,unknown,553,19259
"2019-12-18T08:00:00+0000","4096MergeMatch",Android,DE,afb2e3d6f293b9871a67b2acd3f6ea913e6e759acdbe1846b395ad2b4ba07334,lineitem_2048mergematch-Type_A-ios-global-010-supplierC,type_A,supplier_C,unknown,"4,068",8266
"2019-12-18T08:00:00+0000","4096MergeMatch",Android,DK,"4646d3453c0b5ed0a501fb25ef42d620a42d644502135adcdbe0d43b3439f367",lineitem_2048mergematch-Type_C-ios-global-0090-supplierC,type_A,supplier_C,unknown,553,6461
"2019-12-18T08:00:00+0000","4096MergeMatch",Android,DK,afb2e3d6f293b9871a67b2acd3f6ea913e6e759acdbe1846b395ad2b4ba07334,lineitem_2048mergematch-Type_A-ios-global-010-supplierC,type_A,supplier_C,unknown,"4,068",13408
"2019-12-18T08:00:00+0000","4096MergeMatch",Android,DO,"4646d3453c0b5ed0a501fb25ef42d620a42d644502135adcdbe0d43b3439f367",lineitem_2048mergematch-Type_C-ios-global-0090-supplierC,type_A,supplier_C,unknown,553,10229
"2019-12-18T08:00:00+0000","4096MergeMatch",Android,DO,afb2e3d6f293b9871a67b2acd3f6ea913e6e759acdbe1846b395ad2b4ba07334,lineitem_2048mergematch-Type_A-ios-global-010-supplierC,type_A,supplier_C,unknown,"4,068",1918
"2019-12-18T08:00:00+0000","4096MergeMatch",Android,EG,"4646d3453c0b5ed0a501fb25ef42d620a42d644502135adcdbe0d43b3439f367",lineitem_2048mergematch-Type_C-ios-global-0090-supplierC,type_A,supplier_C,unknown,553,19161
"2019-12-18T08:00:00+0000","4096MergeMatch",Android,EG,afb2e3d6f293b9871a67b2acd3f6ea913e6e759acdbe1846b395ad2b4ba07334,lineitem_2048mergematch-Type_A-ios-global-010-supplierC,type_A,supplier_C,unknown,"4,068",4284
"2019-12-18T08:00:00+0000","4096MergeMatch",Android,ES,"4646d3453c0b5ed0a501fb25ef42d620a42d644502135adcdbe0d43b3439f367",lineitem_2048mergematch-Type_C-ios-global-0090-supplierC,type_A,supplier_C,unknown,553,816
"2019-12-18T08:00:00+0000","4096MergeMatch",Android,ES,afb2e3d6f293b9871a67b2acd3f6ea913e6e759acdbe1846b395ad2b4ba07334,lineitem_2048mergematch-Type_A-ios-global-010-supplierC,type_A,supplier_C,unknown,"4,068",20613
"2019-12-18T08:00:00+0000","4096MergeMatch",Android,GB,"4646d3453c0b5ed0a501fb25ef42d620a42d644502135adcdbe0d43b3439f367",lineitem_2048mergematch-Type_C-ios-global-0090-supplierC,type_A,supplier_C,unknown,553,7024
"2019-12-18T08:00:00+0000","4096MergeMatch",Android,GB,"4646d3453c0b5ed0a501fb25ef42d620a42d644502135adcdbe0d43b3439f367",lineitem_2048mergematch-Type_C-ios-global-0090-supplierC,type_A,supplier_C,unknown,553,17464
"2019-12-18T08:00:00+0000","4096MergeMatch",Android,GB,afb2e3d6f293b9871a67b2acd3f6ea913e6e759acdbe1846b395ad2b4ba07334,lineitem_2048mergematch-Type_A-ios-global-010-supplierC,type_A,supplier_C,unknown,"4,068",16904
"2019-12-18T08:00:00+0000","4096MergeMatch",Android,GB,afb2e3d6f293b9871a67b2acd3f6ea913e6e759acdbe1846b395ad2b4ba07334,lineitem_2048mergematch-Type_A-ios-global-010-supplierC,type_A,supplier_C,unknown,"4,068",19992
"2019-12-18T08:00:00+0000","4096MergeMatch",Android,GU,"4646d3453c0b5ed0a501fb25ef42d620a42d644502135adcdbe0d43b3439f367",lineitem_2048mergematch-Type_C-ios-global-0090-supplierC,type_A,supplier_C,unknown,553,10080
"2019-12-18T08:00:00+0000","4096MergeMatch",Android,GU,afb2e3d6f293b9871a67b2acd3f6ea913e6e759acdbe1846b395ad2b4ba07334,lineitem_2048mergematch-Type_A-ios-global-010-supplierC,type_A,supplier_C,unknown,"4,068",383
"2019-12-18T08:00:00+0000","4096MergeMatch",Android,IL,"4646d3453c0b5ed0a501fb25ef42d620a42d644502135adcdbe0d43b3439f367",lineitem_2048mergematch-Type_C-ios-global-0090-supplierC,type_A,supplier_C,unknown,553,6671
"2019-12-18T08:00:00+0000","4096MergeMatch",Android,IL,afb2e3d6f293b9871a67b2acd3f6ea913e6e759acdbe1846b395ad2b4ba07334,lineitem_2048mergematch-Type_A-ios-global-010-supplierC,type_A,supplier_C,unknown,"4,068",15786
"2019-12-18T08:00:00+0000","4096MergeMatch",Android,IN,"4646d3453c0b5ed0a501fb25ef42d620a42d644502135adcdbe0d43b3439f367",lineitem_2048mergematch-Type_C-ios-global-0090-supplierC,type_A,supplier_C,unknown,553,19224
"2019-12-18T08:00:00+0000","4096MergeMatch",Android,IN,afb2e3d6f293b9871a67b2acd3f6ea913e6e759acdbe1846b395ad2b4ba07334,lineitem_2048mergematch-Type_A-ios-global-010-supplierC,type_A,supplier_C,unknown,"4,068",3402
"2019-12-18T08:00:00+0000","4096MergeMatch",Android,IQ,"4646d3453c0b5ed0a501fb25ef42d620a42d644502135adcdbe0d43b3439f367",lineitem_2048mergematch-Type_C-ios-global-0090-supplierC,type_A,supplier_C,unknown,553,19450
"2019-12-18T08:00:00+0000","4096MergeMatch",Android,IQ,afb2e3d6f293b9871a67b2acd3f6ea913e6e759acdbe1846b395ad2b4ba07334,lineitem_2048mergematch-Type_A-ios-global-010-supplierC,type_A,supplier_C,unknown,"4,068",17500
"2019-12-18T08:00:00+0000","4096MergeMatch",Android,IT,"4646d3453c0b5ed0a501fb25ef42d620a42d644502135adcdbe0d43b3439f367",lineitem_2048mergematch-Type_C-ios-global-0090-supplierC,type_A,supplier_C,unknown,553,970
"2019-12-18T08:00:00+0000","4096MergeMatch",Android,IT,afb2e3d6f293b9871a67b2acd3f6ea913e6e759acdbe1846b395ad2b4ba07334,lineitem_2048mergematch-Type_A-ios-global-010-supplierC,type_A,supplier_C,unknown,"4,068",21695
"2019-12-18T08:00:00+0000","4096MergeMatch",Android,JP,"4646d3453c0b5ed0a501fb25ef42d620a42d644502135adcdbe0d43b3439f367",lineitem_2048mergematch-Type_C-ios-global-0090-supplierC,type_A,supplier_C,unknown,553,13930
"2019-12-18T08:00:00+0000","4096MergeMatch",Android,JP,afb2e3d6f293b9871a67b2acd3f6ea913e6e759acdbe1846b395ad2b4ba07334,lineitem_2048mergematch-Type_A-ios-global-010-supplierC,type_A,supplier_C,unknown,"4,068",1
"2019-12-18T08:00:00+0000","4096MergeMatch",Android,KW,"4646d3453c0b5ed0a501fb25ef42d620a42d644502135adcdbe0d43b3439f367",lineitem_2048mergematch-Type_C-ios-global-0090-supplierC,type_A,supplier_C,unknown,553,3974
"2019-12-18T08:00:00+0000","4096MergeMatch",Android,KW,afb2e3d6f293b9871a67b2acd3f6ea913e6e759acdbe1846b395ad2b4ba07334,lineitem_2048mergematch-Type_A-ios-global-010-supplierC,type_A,supplier_C,unknown,"4,068",22594
"2019-12-18T08:00:00+0000","4096MergeMatch",Android,MX,"4646d3453c0b5ed0a501fb25ef42d620a42d644502135adcdbe0d43b3439f367",lineitem_2048mergematch-Type_C-ios-global-0090-supplierC,type_A,supplier_C,unknown,553,14929
"2019-12-18T08:00:00+0000","4096MergeMatch",Android,MX,afb2e3d6f293b9871a67b2acd3f6ea913e6e759acdbe1846b395ad2b4ba07334,lineitem_2048mergematch-Type_A-ios-global-010-supplierC,type_A,supplier_C,unknown,"4,068",12583
"2019-12-18T08:00:00+0000","4096MergeMatch",Android,NL,"4646d3453c0b5ed0a501fb25ef42d620a42d644502135adcdbe0d43b3439f367",lineitem_2048mergematch-Type_C-ios-global-0090-supplierC,type_A,supplier_C,unknown,553,9400
"2019-12-18T08:00:00+0000","4096MergeMatch",Android,NL,afb2e3d6f293b9871a67b2acd3f6ea913e6e759acdbe1846b395ad2b4ba07334,lineitem_2048mergematch-Type_A-ios-global-010-supplierC,type_A,supplier_C,unknown,"4,068",8622
"2019-12-18T08:00:00+0000","4096MergeMatch",Android,PR,"4646d3453c0b5ed0a501fb25ef42d620a42d644502135adcdbe0d43b3439f367",lineitem_2048mergematch-Type_C-ios-global-0090-supplierC,type_A,supplier_C,unknown,553,2990
"2019-12-18T08:00:00+0000","4096MergeMatch",Android,PR,"4646d3453c0b5ed0a501fb25ef42d620a42d644502135adcdbe0d43b3439f367",lineitem_2048mergematch-Type_C-ios-global-0090-supplierC,type_A,supplier_C,unknown,553,20842
"2019-12-18T08:00:00+0000","4096MergeMatch",Android,PR,afb2e3d6f293b9871a67b2acd3f6ea913e6e759acdbe1846b395ad2b4ba07334,lineitem_2048mergematch-Type_A-ios-global-010-supplierC,type_A,supplier_C,unknown,"4,068",6143
"2019-12-18T08:00:00+0000","4096MergeMatch",Android,PR,afb2e3d6f293b9871a67b2acd3f6ea913e6e759acdbe1846b395ad2b4ba07334,lineitem_2048mergematch-Type_A-ios-global-010-supplierC,type_A,supplier_C,unknown,"4,068",12390
"2019-12-18T08:00:00+0000","4096MergeMatch",Android,RU,"4646d3453c0b5ed0a501fb25ef42d620a42d644502135adcdbe0d43b3439f367",lineitem_2048mergematch-Type_C-ios-global-0090-supplierC,type_A,supplier_C,unknown,553,1458
"2019-12-18T08:00:00+0000","4096MergeMatch",Android,RU,afb2e3d6f293b9871a67b2acd3f6ea913e6e759acdbe1846b395ad2b4ba07334,lineitem_2048mergematch-Type_A-ios-global-010-supplierC,type_A,supplier_C,unknown,"4,068",9075
"2019-12-18T08:00:00+0000","4096MergeMatch",Android,SA,"4646d3453c0b5ed0a501fb25ef42d620a42d644502135adcdbe0d43b3439f367",lineitem_2048mergematch-Type_C-ios-global-0090-supplierC,type_A,supplier_C,unknown,553,5402
"2019-12-18T08:00:00+0000","4096MergeMatch",Android,SA,afb2e3d6f293b9871a67b2acd3f6ea913e6e759acdbe1846b395ad2b4ba07334,lineitem_2048mergematch-Type_A-ios-global-010-supplierC,type_A,supplier_C,unknown,"4,068",16944
"2019-12-18T08:00:00+0000","4096MergeMatch",Android,TR,"4646d3453c0b5ed0a501fb25ef42d620a42d644502135adcdbe0d43b3439f367",lineitem_2048mergematch-Type_C-ios-global-0090-supplierC,type_A,supplier_C,unknown,553,9061
"2019-12-18T08:00:00+0000","4096MergeMatch",Android,TR,afb2e3d6f293b9871a67b2acd3f6ea913e6e759acdbe1846b395ad2b4ba07334,lineitem_2048mergematch-Type_A-ios-global-010-supplierC,type_A,supplier_C,unknown,"4,068",11219
"2019-12-18T08:00:00+0000","4096MergeMatch",Android,US,"4646d3453c0b5ed0a501fb25ef42d620a42d644502135adcdbe0d43b3439f367",lineitem_2048mergematch-Type_C-ios-global-0090-supplierC,type_A,supplier_C,unknown,553,53
"2019-12-18T08:00:00+0000","4096MergeMatch",Android,US,"4646d3453c0b5ed0a501fb25ef42d620a42d644502135adcdbe0d43b3439f367",lineitem_2048mergematch-Type_C-ios-global-0090-supplierC,type_A,supplier_C,unknown,553,7997
"2019-12-18T08:00:00+0000","4096MergeMatch",Android,US,"4646d3453c0b5ed0a501fb25ef42d620a42d644502135adcdbe0d43b3439f367",lineitem_2048mergematch-Type_C-ios-global-0090-supplierC,type_A,supplier_C,unknown,553,9861
"2019-12-18T08:00:00+0000","4096MergeMatch",Android,US,afb2e3d6f293b9871a67b2acd3f6ea913e6e759acdbe1846b395ad2b4ba07334,lineitem_2048mergematch-Type_A-ios-global-010-supplierC,type_A,supplier_C,unknown,"4,068",7876
"2019-12-18T08:00:00+0000","4096MergeMatch",Android,US,afb2e3d6f293b9871a67b2acd3f6ea913e6e759acdbe1846b395ad2b4ba07334,lineitem_2048mergematch-Type_A-ios-global-010-supplierC,type_A,supplier_C,unknown,"4,068",17845
"2019-12-18T08:00:00+0000","4096MergeMatch",Android,US,afb2e3d6f293b9871a67b2acd3f6ea913e6e759acdbe1846b395ad2b4ba07334,lineitem_2048mergematch-Type_A-ios-global-010-supplierC,type_A,supplier_C,unknown,"4,068",18218
"2019-12-18T08:00:00+0000","4096MergeMatch",Android,VN,"4646d3453c0b5ed0a501fb25ef42d620a42d644502135adcdbe0d43b3439f367",lineitem_2048mergematch-Type_C-ios-global-0090-supplierC,type_A,supplier_C,unknown,553,17067
"2019-12-18T08:00:00+0000","4096MergeMatch",Android,VN,afb2e3d6f293b9871a67b2acd3f6ea913e6e759acdbe1846b395ad2b4ba07334,lineitem_2048mergematch-Type_A-ios-global-010-supplierC,type_A,supplier_C,unknown,"4,068",9392
"2019-12-18T08:00:00+0000","4096MergeMatch",iOS,AM,"4646d3453c0b5ed0a501fb25ef42d620a42d644502135adcdbe0d43b3439f367",lineitem_2048mergematch-Type_C-ios-global-0090-supplierC,type_A,supplier_C,unknown,553,9644
"2019-12-18T08:00:00+0000","4096MergeMatch",iOS,AM,afb2e3d6f293b9871a67b2acd3f6ea913e6e759acdbe1846b395ad2b4ba07334,lineitem_2048mergematch-Type_A-ios-global-010-supplierC,type_A,supplier_C,unknown,"4,068",9181
"2019-12-18T08:00:00+0000","4096MergeMatch",iOS,AR,"4646d3453c0b5ed0a501fb25ef42d620a42d644502135adcdbe0d43b3439f367",lineitem_2048mergematch-Type_C-ios-global-0090-supplierC,type_A,supplier_C,unknown,553,8707
"2019-12-18T08:00:00+0000","4096MergeMatch",iOS,AR,afb2e3d6f293b9871a67b2acd3f6ea913e6e759acdbe1846b395ad2b4ba07334,lineitem_2048mergematch-Type_A-ios-global-010-supplierC,type_A,supplier_C,unknown,"4,068",17554
"2019-12-18T08:00:00+0000","4096MergeMatch",iOS,AU,afb2e3d6f293b9871a67b2acd3f6ea913e6e759acdbe1846b395ad2b4ba07334,lineitem_2048mergematch-Type_A-ios-global-010-supplierC,type_A,supplier_C,unknown,"4,068",16569
"2019-12-18T08:00:00+0000","4096MergeMatch",iOS,AZ,"4646d3453c0b5ed0a501fb25ef42d620a42d644502135adcdbe0d43b3439f367",lineitem_2048mergematch-Type_C-ios-global-0090-supplierC,type_A,supplier_C,unknown,553,5362
"2019-12-18T08:00:00+0000","4096MergeMatch",iOS,BR,"4646d3453c0b5ed0a501fb25ef42d620a42d644502135adcdbe0d43b3439f367",lineitem_2048mergematch-Type_C-ios-global-0090-supplierC,type_A,supplier_C,unknown,553,9294
"2019-12-18T08:00:00+0000","4096MergeMatch",iOS,CA,"4646d3453c0b5ed0a501fb25ef42d620a42d644502135adcdbe0d43b3439f367",lineitem_2048mergematch-Type_C-ios-global-0090-supplierC,type_A,supplier_C,unknown,553,2417
"2019-12-18T08:00:00+0000","4096MergeMatch",iOS,CA,"4646d3453c0b5ed0a501fb25ef42d620a42d644502135adcdbe0d43b3439f367",lineitem_2048mergematch-Type_C-ios-global-0090-supplierC,type_A,supplier_C,unknown,553,23408
"2019-12-18T08:00:00+0000","4096MergeMatch",iOS,CH,"4646d3453c0b5ed0a501fb25ef42d620a42d644502135adcdbe0d43b3439f367",lineitem_2048mergematch-Type_C-ios-global-0090-supplierC,type_A,supplier_C,unknown,553,23763
"2019-12-18T08:00:00+0000","4096MergeMatch",iOS,DE,"4646d3453c0b5ed0a501fb25ef42d620a42d644502135adcdbe0d43b3439f367",lineitem_2048mergematch-Type_C-ios-global-0090-supplierC,type_A,supplier_C,unknown,553,19259
"2019-12-18T08:00:00+0000","4096MergeMatch",iOS,DK,"4646d3453c0b5ed0a501fb25ef42d620a42d644502135adcdbe0d43b3439f367",lineitem_2048mergematch-Type_C-ios-global-0090-supplierC,type_A,supplier_C,unknown,553,6461
"2019-12-18T08:00:00+0000","4096MergeMatch",iOS,DO,"4646d3453c0b5ed0a501fb25ef42d620a42d644502135adcdbe0d43b3439f367",lineitem_2048mergematch-Type_C-ios-global-0090-supplierC,type_A,supplier_C,unknown,553,10229
"2019-12-18T08:00:00+0000","4096MergeMatch",iOS,EG,"4646d3453c0b5ed0a501fb25ef42d620a42d644502135adcdbe0d43b3439f367",lineitem_2048mergematch-Type_C-ios-global-0090-supplierC,type_A,supplier_C,unknown,553,19161
"2019-12-18T08:00:00+0000","4096MergeMatch",iOS,ES,"4646d3453c0b5ed0a501fb25ef42d620a42d644502135adcdbe0d43b3439f367",lineitem_2048mergematch-Type_C-ios-global-0090-supplierC,type_A,supplier_C,unknown,553,816
"2019-12-18T08:00:00+0000","4096MergeMatch",iOS,GB,"4646d3453c0b5ed0a501fb25ef42d620a42d644502135adcdbe0d43b3439f367",lineitem_2048mergematch-Type_C-ios-global-0090-supplierC,type_A,supplier_C,unknown,553,7024
"2019-12-18T08:00:00+0000","4096MergeMatch",iOS,GB,"4646d3453c0b5ed0a501fb25ef42d620a42d644502135adcdbe0d43b3439f367",lineitem_2048mergematch-Type_C-ios-global-0090-supplierC,type_A,supplier_C,unknown,553,17464
"2019-12-18T08:00:00+0000","4096MergeMatch",iOS,GU,"4646d3453c0b5ed0a501fb25ef42d620a42d644502135adcdbe0d43b3439f367",lineitem_2048mergematch-Type_C-ios-global-0090-supplierC,type_A,supplier_C,unknown,553,10080
"2019-12-18T08:00:00+0000","4096MergeMatch",iOS,IL,"4646d3453c0b5ed0a501fb25ef42d620a42d644502135adcdbe0d43b3439f367",lineitem_2048mergematch-Type_C-ios-global-0090-supplierC,type_A,supplier_C,unknown,553,6671
"2019-12-18T08:00:00+0000","4096MergeMatch",iOS,IN,"4646d3453c0b5ed0a501fb25ef42d620a42d644502135adcdbe0d43b3439f367",lineitem_2048mergematch-Type_C-ios-global-0090-supplierC,type_A,supplier_C,unknown,553,19224
"2019-12-18T08:00:00+0000","4096MergeMatch",iOS,IQ,"4646d3453c0b5ed0a501fb25ef42d620a42d644502135adcdbe0d43b3439f367",lineitem_2048mergematch-Type_C-ios-global-0090-supplierC,type_A,supplier_C,unknown,553,19450
"2019-12-18T08:00:00+0000","4096MergeMatch",iOS,IT,"4646d3453c0b5ed0a501fb25ef42d620a42d644502135adcdbe0d43b3439f367",lineitem_2048mergematch-Type_C-ios-global-0090-supplierC,type_A,supplier_C,unknown,553,970
"2019-12-18T08:00:00+0000","4096MergeMatch",iOS,JP,"4646d3453c0b5ed0a501fb25ef42d620a42d644502135adcdbe0d43b3439f367",lineitem_2048mergematch-Type_C-ios-global-0090-supplierC,type_A,supplier_C,unknown,553,13930
"2019-12-18T08:00:00+0000","4096MergeMatch",iOS,KW,"4646d3453c0b5ed0a501fb25ef42d620a42d644502135adcdbe0d43b3439f367",lineitem_2048mergematch-Type_C-ios-global-0090-supplierC,type_A,supplier_C,unknown,553,3974
"2019-12-18T08:00:00+0000","4096MergeMatch",iOS,MX,"4646d3453c0b5ed0a501fb25ef42d620a42d644502135adcdbe0d43b3439f367",lineitem_2048mergematch-Type_C-ios-global-0090-supplierC,type_A,supplier_C,unknown,553,14929
"2019-12-18T08:00:00+0000","4096MergeMatch",iOS,NL,"4646d3453c0b5ed0a501fb25ef42d620a42d644502135adcdbe0d43b3439f367",lineitem_2048mergematch-Type_C-ios-global-0090-supplierC,type_A,supplier_C,unknown,553,9400
"2019-12-18T08:00:00+0000","4096MergeMatch",iOS,PR,"4646d3453c0b5ed0a501fb25ef42d620a42d644502135adcdbe0d43b3439f367",lineitem_2048mergematch-Type_C-ios-global-0090-supplierC,type_A,supplier_C,unknown,553,2990
"2019-12-18T08:00:00+0000","4096MergeMatch",iOS,PR,"4646d3453c0b5ed0a501fb25ef42d620a42d644502135adcdbe0d43b3439f367",lineitem_2048mergematch-Type_C-ios-global-0090-supplierC,type_A,supplier_C,unknown,553,20842
"2019-12-18T08:00:00+0000","4096MergeMatch",iOS,RU,"4646d3453c0b5ed0a501fb25ef42d620a42d644502135adcdbe0d43b3439f367",lineitem_2048mergematch-Type_C-ios-global-0090-supplierC,type_A,supplier_C,unknown,553,1458
"2019-12-18T08:00:00+0000","4096MergeMatch",iOS,SA,"4646d3453c0b5ed0a501fb25ef42d620a42d644502135adcdbe0d43b3439f367",lineitem_2048mergematch-Type_C-ios-global-0090-supplierC,type_A,supplier_C,unknown,553,5402
"2019-12-18T08:00:00+0000","4096MergeMatch",iOS,TR,"4646d3453c0b5ed0a501fb25ef42d620a42d644502135adcdbe0d43b3439f367",lineitem_2048mergematch-Type_C-ios-global-0090-supplierC,type_A,supplier_C,unknown,553,9061
"2019-12-18T08:00:00+0000","4096MergeMatch",iOS,US,"4646d3453c0b5ed0a501fb25ef42d620a42d644502135adcdbe0d43b3439f367",lineitem_2048mergematch-Type_C-ios-global-0090-supplierC,type_A,supplier_C,unknown,553,53
"2019-12-18T08:00:00+0000","4096MergeMatch",iOS,US,"4646d3453c0b5ed0a501fb25ef42d620a42d644502135adcdbe0d43b3439f367",lineitem_2048mergematch-Type_C-ios-global-0090-supplierC,type_A,supplier_C,unknown,553,7997
"2019-12-18T08:00:00+0000","4096MergeMatch",iOS,US,"4646d3453c0b5ed0a501fb25ef42d620a42d644502135adcdbe0d43b3439f367",lineitem_2048mergematch-Type_C-ios-global-0090-supplierC,type_A,supplier_C,unknown,553,9861
"2019-12-18T08:00:00+0000","4096MergeMatch",iOS,VN,"4646d3453c0b5ed0a501fb25ef42d620a42d644502135adcdbe0d43b3439f367",lineitem_2048mergematch-Type_C-ios-global-0090-supplierC,type_A,supplier_C,unknown,553,17067
