"Date","App","Platform","Country","Item_Unit_ID","Item_Unit_name","Item_Unit_format","Item_Unit_Supplier","Item_Unit_Count","Item_Unit_Revenue","Item_Unit_SupE_count"
"2019-12-18T08:00:00+0000","4096MergeMatch",Android,AM,"4646d3453c0b5ed0a501fb25ef42d620a42d644502135adcdbe0d43b3439f367",lineitem_2048mergematch-Type_C-ios-global-0090-supplierC,type_A,supplier_C,unknown,553,9644
"2019-12-18T08:00:00+0000","4096MergeMatch",Android,AR,"4646d3453c0b5ed0a501fb25ef42d620a42d644502135adcdbe0d43b3439f367",lineitem_2048mergematch-Type_C-ios-global-0090-supplierC,type_A,supplier_C,unknown,553,8707
"2019-12-18T08:00:00+0000","4096MergeMatch",Android,AZ,"4646d3453c0b5ed0a501fb25ef42d620a42d644502135adcdbe0d43b3439f367",lineitem_2048mergematch-Type_C-ios-global-0090-supplierC,type_A,supplier_C,unknown,553,5362
"2019-12-18T08:00:00+0000","4096MergeMatch",Android,BR,"4646d3453c0b5ed0a501fb25ef42d620a42d644502135adcdbe0d43b3439f367",lineitem_2048mergematch-Type_C-ios-global-0090-supplierC,type_A,supplier_C,unknown,553,9294
"2019-12-18T08:00:00+0000","4096MergeMatch",Android,CA,"4646d3453c0b5ed0a501fb25ef42d620a42d644502135adcdbe0d43b3439f367",lineitem_2048mergematch-Type_C-ios-global-0090-supplierC,type_A,supplier_C,unknown,553,2417
"2019-12-18T08:00:00+0000","4096MergeMatch",Android,CA,"4646d3453c0b5ed0a501fb25ef42d620a42d644502135adcdbe0d43b3439f367",lineitem_2048mergematch-Type_C-ios-global-0090-supplierC,type_A,supplier_C,unknown,553,23408
"2019-12-18T08:00:00+0000","4096MergeMatch",Android,CH,"4646d3453c0b5ed0a501fb25ef42d620a42d644502135adcdbe0d43b3439f367",lineitem_2048mergematch-Type_C-ios-global-0090-supplierC,type_A,supplier_C,unknown,553,23763
"2019-12-18T08:00:00+0000","4096MergeMatch",Android,DE,"4646d3453c0b5ed0a501fb25ef42d620a42d644502135adcdbe0d43b3439f367",lineitem_2048mergematch-Type_C-ios-global-0090-supplierC,type_A,supplier_C,unknown,553,19259
"2019-12-18T08:00:00+0000","4096MergeMatch",Android,DK,"4646d3453c0b5ed0a501fb25ef42d620a42d644502135adcdbe0d43b3439f367",lineitem_2048mergematch-Type_C-ios-global-0090-supplierC,type_A,supplier_C,unknown,553,6461
"2019-12-18T08:00:00+0000","4096MergeMatch",Android,DO,"4646d3453c0b5ed0a501fb25ef42d620a42d644502135adcdbe0d43b3439f367",lineitem_2048mergematch-Type_C-ios-global-0090-supplierC,type_A,supplier_C,unknown,553,10229
"2019-12-18T08:00:00+0000","4096MergeMatch",Android,EG,"4646d3453c0b5ed0a501fb25ef42d620a42d644502135adcdbe0d43b3439f367",lineitem_2048mergematch-Type_C-ios-global-0090-supplierC,type_A,supplier_C,unknown,553,19161
"2019-12-18T08:00:00+0000","4096MergeMatch",Android,ES,"4646d3453c0b5ed0a501fb25ef42d620a42d644502135adcdbe0d43b3439f367",lineitem_2048mergematch-Type_C-ios-global-0090-supplierC,type_A,supplier_C,unknown,553,816
"2019-12-18T08:00:00+0000","4096MergeMatch",Android,GB,"4646d3453c0b5ed0a501fb25ef42d620a42d644502135adcdbe0d43b3439f367",lineitem_2048mergematch-Type_C-ios-global-0090-supplierC,type_A,supplier_C,unknown,553,7024
"2019-12-18T08:00:00+0000","4096MergeMatch",Android,GB,"4646d3453c0b5ed0a501fb25ef42d620a42d644502135adcdbe0d43b3439f367",lineitem_2048mergematch-Type_C-ios-global-0090-supplierC,type_A,supplier_C,unknown,553,17464
"2019-12-18T08:00:00+0000","4096MergeMatch",Android,GU,"4646d3453c0b5ed0a501fb25ef42d620a42d644502135adcdbe0d43b3439f367",lineitem_2048mergematch-Type_C-ios-global-0090-supplierC,type_A,supplier_C,unknown,553,10080
"2019-12-18T08:00:00+0000","4096MergeMatch",Android,IL,"4646d3453c0b5ed0a501fb25ef42d620a42d644502135adcdbe0d43b3439f367",lineitem_2048mergematch-Type_C-ios-global-0090-supplierC,type_A,supplier_C,unknown,553,6671
"2019-12-18T08:00:00+0000","4096MergeMatch",Android,IN,"4646d3453c0b5ed0a501fb25ef42d620a42d644502135adcdbe0d43b3439f367",lineitem_2048mergematch-Type_C-ios-global-0090-supplierC,type_A,supplier_C,unknown,553,19224
"2019-12-18T08:00:00+0000","4096MergeMatch",Android,IQ,"4646d3453c0b5ed0a501fb25ef42d620a42d644502135adcdbe0d43b3439f367",lineitem_2048mergematch-Type_C-ios-global-0090-supplierC,type_A,supplier_C,unknown,553,19450
"2019-12-18T08:00:00+0000","4096MergeMatch",Android,IT,"4646d3453c0b5ed0a501fb25ef42d620a42d644502135adcdbe0d43b3439f367",lineitem_2048mergematch-Type_C-ios-global-0090-supplierC,type_A,supplier_C,unknown,553,970
"2019-12-18T08:00:00+0000","4096MergeMatch",Android,JP,"4646d3453c0b5ed0a501fb25ef42d620a42d644502135adcdbe0d43b3439f367",lineitem_2048mergematch-Type_C-ios-global-0090-supplierC,type_A,supplier_C,unknown,553,13930
"2019-12-18T08:00:00+0000","4096MergeMatch",Android,KW,"4646d3453c0b5ed0a501fb25ef42d620a42d644502135adcdbe0d43b3439f367",lineitem_2048mergematch-Type_C-ios-global-0090-supplierC,type_A,supplier_C,unknown,553,3974
"2019-12-18T08:00:00+0000","4096MergeMatch",Android,MX,"4646d3453c0b5ed0a501fb25ef42d620a42d644502135adcdbe0d43b3439f367",lineitem_2048mergematch-Type_C-ios-global-0090-supplierC,type_A,supplier_C,unknown,553,14929
"2019-12-18T08:00:00+0000","4096MergeMatch",Android,NL,"4646d3453c0b5ed0a501fb25ef42d620a42d644502135adcdbe0d43b3439f367",lineitem_2048mergematch-Type_C-ios-global-0090-supplierC,type_A,supplier_C,unknown,553,9400
"2019-12-18T08:00:00+0000","4096MergeMatch",Android,PR,"4646d3453c0b5ed0a501fb25ef42d620a42d644502135adcdbe0d43b3439f367",lineitem_2048mergematch-Type_C-ios-global-0090-supplierC,type_A,supplier_C,unknown,553,2990
"2019-12-18T08:00:00+0000","4096MergeMatch",Android,PR,"4646d3453c0b5ed0a501fb25ef42d620a42d644502135adcdbe0d43b3439f367",lineitem_2048mergematch-Type_C-ios-global-0090-supplierC,type_A,supplier_C,unknown,553,20842
"2019-12-18T08:00:00+0000","4096MergeMatch",Android,RU,"4646d3453c0b5ed0a501fb25ef42d620a42d644502135adcdbe0d43b3439f367",lineitem_2048mergematch-Type_C-ios-global-0090-supplierC,type_A,supplier_C,unknown,553,1458
"2019-12-18T08:00:00+0000","4096MergeMatch",Android,SA,"4646d3453c0b5ed0a501fb25ef42d620a42d644502135adcdbe0d43b3439f367",lineitem_2048mergematch-Type_C-ios-global-0090-supplierC,type_A,supplier_C,unknown,553,5402
"2019-12-18T08:00:00+0000","4096MergeMatch",Android,TR,"4646d3453c0b5ed0a501fb25ef42d620a42d644502135adcdbe0d43b3439f367",lineitem_2048mergematch-Type_C-ios-global-0090-supplierC,type_A,supplier_C,unknown,553,9061
"2019-12-18T08:00:00+0000","4096MergeMatch",Android,US,"4646d3453c0b5ed0a501fb25ef42d620a42d644502135adcdbe0d43b3439f367",lineitem_2048mergematch-Type_C-ios-global-0090-supplierC,type_A,supplier_C,unknown,553,53
"2019-12-18T08:00:00+0000","4096MergeMatch",Android,US,"4646d3453c0b5ed0a501fb25ef42d620a42d644502135adcdbe0d43b3439f367",lineitem_2048mergematch-Type_C-ios-global-0090-supplierC,type_A,supplier_C,unknown,553,7997
"2019-12-18T08:00:00+0000","4096MergeMatch",Android,US,"4646d3453c0b5ed0a501fb25ef42d620a42d644502135adcdbe0d43b3439f367",lineitem_2048mergematch-Type_C-ios-global-0090-supplierC,type_A,supplier_C,unknown,553,9861
"2019-12-18T08:00:00+0000","4096MergeMatch",Android,VN,"4646d3453c0b5ed0a501fb25ef42d620a42d644502135adcdbe0d43b3439f367",lineitem_2048mergematch-Type_C-ios-global-0090-supplierC,type_A,supplier_C,unknown,553,17067
"2019-12-18T08:00:00+0000","4096MergeMatch",iOS,AM,"4646d3453c0b5ed0a501fb25ef42d620a42d644502135adcdbe0d43b3439f367",lineitem_2048mergematch-Type_C-ios-global-0090-supplierC,type_A,supplier_C,unknown,553,9644
"2019-12-18T08:00:00+0000","4096MergeMatch",iOS,AR,"4646d3453c0b5ed0a501fb25ef42d620a42d644502135adcdbe0d43b3439f367",lineitem_2048mergematch-Type_C-ios-global-0090-supplierC,type_A,supplier_C,unknown,553,8707
"2019-12-18T08:00:00+0000","4096MergeMatch",iOS,AZ,"4646d3453c0b5ed0a501fb25ef42d620a42d644502135adcdbe0d43b3439f367",lineitem_2048mergematch-Type_C-ios-global-0090-supplierC,type_A,supplier_C,unknown,553,5362
"2019-12-18T08:00:00+0000","4096MergeMatch",iOS,BR,"4646d3453c0b5ed0a501fb25ef42d620a42d644502135adcdbe0d43b3439f367",lineitem_2048mergematch-Type_C-ios-global-0090-supplierC,type_A,supplier_C,unknown,553,9294
"2019-12-18T08:00:00+0000","4096MergeMatch",iOS,CA,"4646d3453c0b5ed0a501fb25ef42d620a42d644502135adcdbe0d43b3439f367",lineitem_2048mergematch-Type_C-ios-global-0090-supplierC,type_A,supplier_C,unknown,553,2417
"2019-12-18T08:00:00+0000","4096MergeMatch",iOS,CA,"4646d3453c0b5ed0a501fb25ef42d620a42d644502135adcdbe0d43b3439f367",lineitem_2048mergematch-Type_C-ios-global-0090-supplierC,type_A,supplier_C,unknown,553,23408
"2019-12-18T08:00:00+0000","4096MergeMatch",iOS,CH,"4646d3453c0b5ed0a501fb25ef42d620a42d644502135adcdbe0d43b3439f367",lineitem_2048mergematch-Type_C-ios-global-0090-supplierC,type_A,supplier_C,unknown,553,23763
"2019-12-18T08:00:00+0000","4096MergeMatch",iOS,DE,"4646d3453c0b5ed0a501fb25ef42d620a42d644502135adcdbe0d43b3439f367",lineitem_2048mergematch-Type_C-ios-global-0090-supplierC,type_A,supplier_C,unknown,553,19259
"2019-12-18T08:00:00+0000","4096MergeMatch",iOS,DK,"4646d3453c0b5ed0a501fb25ef42d620a42d644502135adcdbe0d43b3439f367",lineitem_2048mergematch-Type_C-ios-global-0090-supplierC,type_A,supplier_C,unknown,553,6461
"2019-12-18T08:00:00+0000","4096MergeMatch",iOS,DO,"4646d3453c0b5ed0a501fb25ef42d620a42d644502135adcdbe0d43b3439f367",lineitem_2048mergematch-Type_C-ios-global-0090-supplierC,type_A,supplier_C,unknown,553,10229
"2019-12-18T08:00:00+0000","4096MergeMatch",iOS,EG,"4646d3453c0b5ed0a501fb25ef42d620a42d644502135adcdbe0d43b3439f367",lineitem_2048mergematch-Type_C-ios-global-0090-supplierC,type_A,supplier_C,unknown,553,19161
"2019-12-18T08:00:00+0000","4096MergeMatch",iOS,ES,"4646d3453c0b5ed0a501fb25ef42d620a42d644502135adcdbe0d43b3439f367",lineitem_2048mergematch-Type_C-ios-global-0090-supplierC,type_A,supplier_C,unknown,553,816
"2019-12-18T08:00:00+0000","4096MergeMatch",iOS,GB,"4646d3453c0b5ed0a501fb25ef42d620a42d644502135adcdbe0d43b3439f367",lineitem_2048mergematch-Type_C-ios-global-0090-supplierC,type_A,supplier_C,unknown,553,7024
"2019-12-18T08:00:00+0000","4096MergeMatch",iOS,GB,"4646d3453c0b5ed0a501fb25ef42d620a42d644502135adcdbe0d43b3439f367",lineitem_2048mergematch-Type_C-ios-global-0090-supplierC,type_A,supplier_C,unknown,553,17464
"2019-12-18T08:00:00+0000","4096MergeMatch",iOS,GU,"4646d3453c0b5ed0a501fb25ef42d620a42d644502135adcdbe0d43b3439f367",lineitem_2048mergematch-Type_C-ios-global-0090-supplierC,type_A,supplier_C,unknown,553,10080
"2019-12-18T08:00:00+0000","4096MergeMatch",iOS,IL,"4646d3453c0b5ed0a501fb25ef42d620a42d644502135adcdbe0d43b3439f367",lineitem_2048mergematch-Type_C-ios-global-0090-supplierC,type_A,supplier_C,unknown,553,6671
"2019-12-18T08:00:00+0000","4096MergeMatch",iOS,IN,"4646d3453c0b5ed0a501fb25ef42d620a42d644502135adcdbe0d43b3439f367",lineitem_2048mergematch-Type_C-ios-global-0090-supplierC,type_A,supplier_C,unknown,553,19224
"2019-12-18T08:00:00+0000","4096MergeMatch",iOS,IQ,"4646d3453c0b5ed0a501fb25ef42d620a42d644502135adcdbe0d43b3439f367",lineitem_2048mergematch-Type_C-ios-global-0090-supplierC,type_A,supplier_C,unknown,553,19450
"2019-12-18T08:00:00+0000","4096MergeMatch",iOS,IT,"4646d3453c0b5ed0a501fb25ef42d620a42d644502135adcdbe0d43b3439f367",lineitem_2048mergematch-Type_C-ios-global-0090-supplierC,type_A,supplier_C,unknown,553,970
"2019-12-18T08:00:00+0000","4096MergeMatch",iOS,JP,"4646d3453c0b5ed0a501fb25ef42d620a42d644502135adcdbe0d43b3439f367",lineitem_2048mergematch-Type_C-ios-global-0090-supplierC,type_A,supplier_C,unknown,553,13930
"2019-12-18T08:00:00+0000","4096MergeMatch",iOS,KW,"4646d3453c0b5ed0a501fb25ef42d620a42d644502135adcdbe0d43b3439f367",lineitem_2048mergematch-Type_C-ios-global-0090-supplierC,type_A,supplier_C,unknown,553,3974
"2019-12-18T08:00:00+0000","4096MergeMatch",iOS,MX,"4646d3453c0b5ed0a501fb25ef42d620a42d644502135adcdbe0d43b3439f367",lineitem_2048mergematch-Type_C-ios-global-0090-supplierC,type_A,supplier_C,unknown,553,14929
"2019-12-18T08:00:00+0000","4096MergeMatch",iOS,NL,"4646d3453c0b5ed0a501fb25ef42d620a42d644502135adcdbe0d43b3439f367",lineitem_2048mergematch-Type_C-ios-global-0090-supplierC,type_A,supplier_C,unknown,553,9400
"2019-12-18T08:00:00+0000","4096MergeMatch",iOS,PR,"4646d3453c0b5ed0a501fb25ef42d620a42d644502135adcdbe0d43b3439f367",lineitem_2048mergematch-Type_C-ios-global-0090-supplierC,type_A,supplier_C,unknown,553,2990
"2019-12-18T08:00:00+0000","4096MergeMatch",iOS,PR,"4646d3453c0b5ed0a501fb25ef42d620a42d644502135adcdbe0d43b3439f367",lineitem_2048mergematch-Type_C-ios-global-0090-supplierC,type_A,supplier_C,unknown,553,20842
"2019-12-18T08:00:00+0000","4096MergeMatch",iOS,RU,"4646d3453c0b5ed0a501fb25ef42d620a42d644502135adcdbe0d43b3439f367",lineitem_2048mergematch-Type_C-ios-global-0090-supplierC,type_A,supplier_C,unknown,553,1458
"2019-12-18T08:00:00+0000","4096MergeMatch",iOS,SA,"4646d3453c0b5ed0a501fb25ef42d620a42d644502135adcdbe0d43b3439f367",lineitem_2048mergematch-Type_C-ios-global-0090-supplierC,type_A,supplier_C,unknown,553,5402
"2019-12-18T08:00:00+0000","4096MergeMatch",iOS,TR,"4646d3453c0b5ed0a501fb25ef42d620a42d644502135adcdbe0d43b3439f367",lineitem_2048mergematch-Type_C-ios-global-0090-supplierC,type_A,supplier_C,unknown,553,9061
"2019-12-18T08:00:00+0000","4096MergeMatch",iOS,US,"4646d3453c0b5ed0a501fb25ef42d620a42d644502135adcdbe0d43b3439f367",lineitem_2048mergematch-Type_C-ios-global-0090-supplierC,type_A,supplier_C,unknown,553,53
"2019-12-18T08:00:00+0000","4096MergeMatch",iOS,US,"4646d3453c0b5ed0a501fb25ef42d620a42d644502135adcdbe0d43b3439f367",lineitem_2048mergematch-Type_C-ios-global-0090-supplierC,type_A,supplier_C,unknown,553,7997
"2019-12-18T08:00:00+0000","4096MergeMatch",iOS,US,"4646d3453c0b5ed0a501fb25ef42d620a42d644502135adcdbe0d43b3439f367",lineitem_2048mergematch-Type_C-ios-global-0090-supplierC,type_A,supplier_C,unknown,553,9861
"2019-12-18T08:00:00+0000","4096MergeMatch",iOS,VN,"4646d3453c0b5ed0a501fb25ef42d620a42d644502135adcdbe0d43b3439f367",lineitem_2048mergematch-Type_C-ios-global-0090-supplierC,type_A,supplier_C,unknown,553,17067
"2019-12-18T08:00:00+0000","4096MergeMatch",Android,AM,afb2e3d6f293b9871a67b2acd3f6ea913e6e759acdbe1846b395ad2b4ba07334,lineitem_2048mergematch-Type_A-ios-global-010-supplierC,type_A,supplier_C,unknown,4068,9181
"2019-12-18T08:00:00+0000","4096MergeMatch",Android,AR,afb2e3d6f293b9871a67b2acd3f6ea913e6e759acdbe1846b395ad2b4ba07334,lineitem_2048mergematch-Type_A-ios-global-010-supplierC,type_A,supplier_C,unknown,4068,17554
"2019-12-18T08:00:00+0000","4096MergeMatch",Android,AU,afb2e3d6f293b9871a67b2acd3f6ea913e6e759acdbe1846b395ad2b4ba07334,lineitem_2048mergematch-Type_A-ios-global-010-supplierC,type_A,supplier_C,unknown,4068,16569
"2019-12-18T08:00:00+0000","4096MergeMatch",Android,AZ,afb2e3d6f293b9871a67b2acd3f6ea913e6e759acdbe1846b395ad2b4ba07334,lineitem_2048mergematch-Type_A-ios-global-010-supplierC,type_A,supplier_C,unknown,4068,20400
"2019-12-18T08:00:00+0000","4096MergeMatch",Android,BR,afb2e3d6f293b9871a67b2acd3f6ea913e6e759acdbe1846b395ad2b4ba07334,lineitem_2048mergematch-Type_A-ios-global-010-supplierC,type_A,supplier_C,unknown,4068,18182
"2019-12-18T08:00:00+0000","4096MergeMatch",Android,CA,afb2e3d6f293b9871a67b2acd3f6ea913e6e759acdbe1846b395ad2b4ba07334,lineitem_2048mergematch-Type_A-ios-global-010-supplierC,type_A,supplier_C,unknown,4068,1520
"2019-12-18T08:00:00+0000","4096MergeMatch",Android,CA,afb2e3d6f293b9871a67b2acd3f6ea913e6e759acdbe1846b395ad2b4ba07334,lineitem_2048mergematch-Type_A-ios-global-010-supplierC,type_A,supplier_C,unknown,4068,13209
"2019-12-18T08:00:00+0000","4096MergeMatch",Android,CH,afb2e3d6f293b9871a67b2acd3f6ea913e6e759acdbe1846b395ad2b4ba07334,lineitem_2048mergematch-Type_A-ios-global-010-supplierC,type_A,supplier_C,unknown,4068,4740
"2019-12-18T08:00:00+0000","4096MergeMatch",Android,DE,afb2e3d6f293b9871a67b2acd3f6ea913e6e759acdbe1846b395ad2b4ba07334,lineitem_2048mergematch-Type_A-ios-global-010-supplierC,type_A,supplier_C,unknown,4068,8266
"2019-12-18T08:00:00+0000","4096MergeMatch",Android,DK,afb2e3d6f293b9871a67b2acd3f6ea913e6e759acdbe1846b395ad2b4ba07334,lineitem_2048mergematch-Type_A-ios-global-010-supplierC,type_A,supplier_C,unknown,4068,13408
"2019-12-18T08:00:00+0000","4096MergeMatch",Android,DO,afb2e3d6f293b9871a67b2acd3f6ea913e6e759acdbe1846b395ad2b4ba07334,lineitem_2048mergematch-Type_A-ios-global-010-supplierC,type_A,supplier_C,unknown,4068,1918
"2019-12-18T08:00:00+0000","4096MergeMatch",Android,EG,afb2e3d6f293b9871a67b2acd3f6ea913e6e759acdbe1846b395ad2b4ba07334,lineitem_2048mergematch-Type_A-ios-global-010-supplierC,type_A,supplier_C,unknown,4068,4284
"2019-12-18T08:00:00+0000","4096MergeMatch",Android,ES,afb2e3d6f293b9871a67b2acd3f6ea913e6e759acdbe1846b395ad2b4ba07334,lineitem_2048mergematch-Type_A-ios-global-010-supplierC,type_A,supplier_C,unknown,4068,20613
"2019-12-18T08:00:00+0000","4096MergeMatch",Android,GB,afb2e3d6f293b9871a67b2acd3f6ea913e6e759acdbe1846b395ad2b4ba07334,lineitem_2048mergematch-Type_A-ios-global-010-supplierC,type_A,supplier_C,unknown,4068,16904
"2019-12-18T08:00:00+0000","4096MergeMatch",Android,GB,afb2e3d6f293b9871a67b2acd3f6ea913e6e759acdbe1846b395ad2b4ba07334,lineitem_2048mergematch-Type_A-ios-global-010-supplierC,type_A,supplier_C,unknown,4068,19992
"2019-12-18T08:00:00+0000","4096MergeMatch",Android,GU,afb2e3d6f293b9871a67b2acd3f6ea913e6e759acdbe1846b395ad2b4ba07334,lineitem_2048mergematch-Type_A-ios-global-010-supplierC,type_A,supplier_C,unknown,4068,383
"2019-12-18T08:00:00+0000","4096MergeMatch",Android,IL,afb2e3d6f293b9871a67b2acd3f6ea913e6e759acdbe1846b395ad2b4ba07334,lineitem_2048mergematch-Type_A-ios-global-010-supplierC,type_A,supplier_C,unknown,4068,15786
"2019-12-18T08:00:00+0000","4096MergeMatch",Android,IN,afb2e3d6f293b9871a67b2acd3f6ea913e6e759acdbe1846b395ad2b4ba07334,lineitem_2048mergematch-Type_A-ios-global-010-supplierC,type_A,supplier_C,unknown,4068,3402
"2019-12-18T08:00:00+0000","4096MergeMatch",Android,IQ,afb2e3d6f293b9871a67b2acd3f6ea913e6e759acdbe1846b395ad2b4ba07334,lineitem_2048mergematch-Type_A-ios-global-010-supplierC,type_A,supplier_C,unknown,4068,17500
"2019-12-18T08:00:00+0000","4096MergeMatch",Android,IT,afb2e3d6f293b9871a67b2acd3f6ea913e6e759acdbe1846b395ad2b4ba07334,lineitem_2048mergematch-Type_A-ios-global-010-supplierC,type_A,supplier_C,unknown,4068,21695
"2019-12-18T08:00:00+0000","4096MergeMatch",Android,JP,afb2e3d6f293b9871a67b2acd3f6ea913e6e759acdbe1846b395ad2b4ba07334,lineitem_2048mergematch-Type_A-ios-global-010-supplierC,type_A,supplier_C,unknown,4068,1
"2019-12-18T08:00:00+0000","4096MergeMatch",Android,KW,afb2e3d6f293b9871a67b2acd3f6ea913e6e759acdbe1846b395ad2b4ba07334,lineitem_2048mergematch-Type_A-ios-global-010-supplierC,type_A,supplier_C,unknown,4068,22594
"2019-12-18T08:00:00+0000","4096MergeMatch",Android,MX,afb2e3d6f293b9871a67b2acd3f6ea913e6e759acdbe1846b395ad2b4ba07334,lineitem_2048mergematch-Type_A-ios-global-010-supplierC,type_A,supplier_C,unknown,4068,12583
"2019-12-18T08:00:00+0000","4096MergeMatch",Android,NL,afb2e3d6f293b9871a67b2acd3f6ea913e6e759acdbe1846b395ad2b4ba07334,lineitem_2048mergematch-Type_A-ios-global-010-supplierC,type_A,supplier_C,unknown,4068,8622
"2019-12-18T08:00:00+0000","4096MergeMatch",Android,PR,afb2e3d6f293b9871a67b2acd3f6ea913e6e759acdbe1846b395ad2b4ba07334,lineitem_2048mergematch-Type_A-ios-global-010-supplierC,type_A,supplier_C,unknown,4068,6143
"2019-12-18T08:00:00+0000","4096MergeMatch",Android,PR,afb2e3d6f293b9871a67b2acd3f6ea913e6e759acdbe1846b395ad2b4ba07334,lineitem_2048mergematch-Type_A-ios-global-010-supplierC,type_A,supplier_C,unknown,4068,12390
"2019-12-18T08:00:00+0000","4096MergeMatch",Android,RU,afb2e3d6f293b9871a67b2acd3f6ea913e6e759acdbe1846b395ad2b4ba07334,lineitem_2048mergematch-Type_A-ios-global-010-supplierC,type_A,supplier_C,unknown,4068,9075
"2019-12-18T08:00:00+0000","4096MergeMatch",Android,SA,afb2e3d6f293b9871a67b2acd3f6ea913e6e759acdbe1846b395ad2b4ba07334,lineitem_2048mergematch-Type_A-ios-global-010-supplierC,type_A,supplier_C,unknown,4068,16944
"2019-12-18T08:00:00+0000","4096MergeMatch",Android,TR,afb2e3d6f293b9871a67b2acd3f6ea913e6e759acdbe1846b395ad2b4ba07334,lineitem_2048mergematch-Type_A-ios-global-010-supplierC,type_A,supplier_C,unknown,4068,11219
"2019-12-18T08:00:00+0000","4096MergeMatch",Android,US,afb2e3d6f293b9871a67b2acd3f6ea913e6e759acdbe1846b395ad2b4ba07334,lineitem_2048mergematch-Type_A-ios-global-010-supplierC,type_A,supplier_C,unknown,4068,7876
"2019-12-18T08:00:00+0000","4096MergeMatch",Android,US,afb2e3d6f293b9871a67b2acd3f6ea913e6e759acdbe1846b395ad2b4ba07334,lineitem_2048mergematch-Type_A-ios-global-010-supplierC,type_A,supplier_C,unknown,4068,17845
"2019-12-18T08:00:00+0000","4096MergeMatch",Android,US,afb2e3d6f293b9871a67b2acd3f6ea913e6e759acdbe1846b395ad2b4ba07334,lineitem_2048mergematch-Type_A-ios-global-010-supplierC,type_A,supplier_C,unknown,4068,18218
"2019-12-18T08:00:00+0000","4096MergeMatch",Android,VN,afb2e3d6f293b9871a67b2acd3f6ea913e6e759acdbe1846b395ad2b4ba07334,lineitem_2048mergematch-Type_A-ios-global-010-supplierC,type_A,supplier_C,unknown,4068,9392
"2019-12-18T08:00:00+0000","4096MergeMatch",iOS,AM,afb2e3d6f293b9871a67b2acd3f6ea913e6e759acdbe1846b395ad2b4ba07334,lineitem_2048mergematch-Type_A-ios-global-010-supplierC,type_A,supplier_C,unknown,4068,9181
"2019-12-18T08:00:00+0000","4096MergeMatch",iOS,AR,afb2e3d6f293b9871a67b2acd3f6ea913e6e759acdbe1846b395ad2b4ba07334,lineitem_2048mergematch-Type_A-ios-global-010-supplierC,type_A,supplier_C,unknown,4068,17554
"2019-12-18T08:00:00+0000","4096MergeMatch",iOS,AU,afb2e3d6f293b9871a67b2acd3f6ea913e6e759acdbe1846b395ad2b4ba07334,lineitem_2048mergematch-Type_A-ios-global-010-supplierC,type_A,supplier_C,unknown,4068,16569
